38, 72, 17, 1
38, 40, 31, 1
38, 40, 5, 1
38, 20, 96, 1
38, 71, 96, 1
38, 79, 96, 1
38, 20, 46, 1
38, 42, 46, 1
38, 20, 6, 1
38, 15, 65, 1
38, 86, 65, 1
38, 92, 81, 2
38, 42, 49, 2
38, 71, 49, 2
38, 42, 14, 2
38, 92, 14, 2
38, 20, 96, 2
38, 71, 96, 2
38, 79, 96, 2
38, 20, 48, 2
38, 40, 48, 2
38, 15, 7, 2
38, 59, 7, 2
38, 15, 3
38, 86, 4
38, 40, 4
38, 40, 5
38, 20, 6
38, 59, 7
38, 15, 7
38, 71, 8
38, 86, 9
38, 72, 9
38, 40, 9
38, 79, 10
38, 92, 85, 11
38, 92, 36, 11
38, 79, 41, 11
38, 72, 17, 11
38, 40, 24, 11
38, 59, 24, 11
38, 71, 24, 11
38, 20, 74, 11
38, 79, 74, 11
38, 92, 74, 11
38, 20, 48, 11
38, 40, 48, 11
38, 20, 46, 11
38, 42, 46, 11
38, 15, 75, 11
38, 59, 75, 11
38, 20, 12
38, 15, 12
38, 86, 13
38, 92, 14
38, 42, 14
38, 15
38, 92, 84, 16
38, 92, 43, 16
38, 92, 36, 16
38, 71, 18, 16
38, 40, 100, 16
38, 40, 69, 16
38, 40, 31, 16
38, 15, 45, 16
38, 40, 45, 16
38, 86, 45, 16
38, 15, 39, 16
38, 72, 17
38, 71, 18
38, 92, 43, 19
38, 86, 13, 19
38, 79, 33, 19
38, 92, 33, 19
38, 71, 62, 19
38, 42, 49, 19
38, 71, 49, 19
38, 40, 9, 19
38, 72, 9, 19
38, 86, 9, 19
38, 20
38, 20, 96, 21
38, 71, 96, 21
38, 79, 96, 21
38, 15, 3, 21
38, 20, 22
38, 86, 23
38, 42, 23
38, 71, 24
38, 59, 24
38, 40, 24
38, 92, 25
38, 42, 25
38, 15, 26
38, 40, 27
38, 42, 25, 28
38, 92, 25, 28
38, 40, 95, 28
38, 72, 95, 28
38, 40, 70, 28
38, 40, 4, 28
38, 86, 4, 28
38, 20, 93, 28
38, 40, 93, 28
38, 15, 39, 28
38, 15, 7, 28
38, 59, 7, 28
38, 92, 81, 29
38, 71, 30, 29
38, 72, 30, 29
38, 42, 60, 29
38, 42, 23, 29
38, 86, 23, 29
38, 40, 24, 29
38, 59, 24, 29
38, 71, 24, 29
38, 40, 4, 29
38, 86, 4, 29
38, 20, 93, 29
38, 40, 93, 29
38, 20, 74, 29
38, 79, 74, 29
38, 92, 74, 29
38, 20, 48, 29
38, 40, 48, 29
38, 20, 22, 29
38, 15, 65, 29
38, 86, 65, 29
38, 15, 3, 29
38, 72, 30
38, 71, 30
38, 40, 31
38, 92, 84, 32
38, 71, 18, 32
38, 42, 35, 32
38, 92, 35, 32
38, 40, 95, 32
38, 72, 95, 32
38, 40, 4, 32
38, 86, 4, 32
38, 20, 48, 32
38, 40, 48, 32
38, 15, 78, 32
38, 15, 65, 32
38, 86, 65, 32
38, 15, 44, 32
38, 42, 44, 32
38, 92, 33
38, 79, 33
38, 79, 34
38, 72, 34
38, 92, 35
38, 42, 35
38, 92, 36
38, 92, 37
38, 72, 37
38
38, 15, 39
38, 40
38, 79, 41
38, 42
38, 92, 43
38, 42, 44
38, 15, 44
38, 86, 45
38, 40, 45
38, 15, 45
38, 42, 46
38, 20, 46
38, 86, 67, 47
38, 79, 41, 47
38, 79, 33, 47
38, 92, 33, 47
38, 42, 87, 47
38, 40, 95, 47
38, 72, 95, 47
38, 40, 9, 47
38, 72, 9, 47
38, 86, 9, 47
38, 40, 5, 47
38, 20, 48, 47
38, 40, 48, 47
38, 40, 48
38, 20, 48
38, 71, 49
38, 42, 49
38, 86, 50
38, 86, 51
38, 71, 51
38, 15, 51
38, 92, 43, 52
38, 86, 13, 52
38, 71, 62, 52
38, 15, 45, 52
38, 40, 45, 52
38, 86, 45, 52
38, 86, 13, 53
38, 79, 33, 53
38, 92, 33, 53
38, 59, 76, 53
38, 42, 60, 53
38, 15, 75, 53
38, 59, 75, 53
38, 15, 12, 53
38, 20, 12, 53
38, 86, 50, 54
38, 79, 33, 54
38, 92, 33, 54
38, 71, 62, 54
38, 59, 76, 54
38, 40, 95, 54
38, 72, 95, 54
38, 40, 9, 54
38, 72, 9, 54
38, 86, 9, 54
38, 15, 75, 54
38, 59, 75, 54
38, 15, 12, 54
38, 20, 12, 54
38, 15, 3, 54
38, 79, 55
38, 71, 55
38, 92, 84, 56
38, 92, 36, 56
38, 42, 60, 56
38, 42, 35, 56
38, 92, 35, 56
38, 42, 23, 56
38, 86, 23, 56
38, 20, 97, 56
38, 15, 78, 56
38, 15, 75, 56
38, 59, 75, 56
38, 15, 26, 56
38, 79, 33, 57
38, 92, 33, 57
38, 20, 46, 57
38, 42, 46, 57
38, 15, 51, 57
38, 71, 51, 57
38, 86, 51, 57
38, 72, 17, 58
38, 71, 55, 58
38, 79, 55, 58
38, 40, 70, 58
38, 40, 5, 58
38, 20, 97, 58
38, 15, 51, 58
38, 71, 51, 58
38, 86, 51, 58
38, 15, 44, 58
38, 42, 44, 58
38, 15, 7, 58
38, 59, 7, 58
38, 59
38, 42, 60
38, 86, 68, 61
38, 71, 62, 61
38, 71, 30, 61
38, 72, 30, 61
38, 42, 87, 61
38, 15, 7, 61
38, 59, 7, 61
38, 71, 62
38, 92, 73, 63
38, 71, 62, 63
38, 71, 55, 63
38, 79, 55, 63
38, 42, 25, 63
38, 92, 25, 63
38, 40, 5, 63
38, 15, 51, 63
38, 71, 51, 63
38, 86, 51, 63
38, 15, 12, 63
38, 20, 12, 63
38, 72, 34, 64
38, 79, 34, 64
38, 71, 62, 64
38, 71, 55, 64
38, 79, 55, 64
38, 40, 31, 64
38, 86, 65
38, 15, 65
38, 92, 85, 66
38, 92, 81, 66
38, 79, 10, 66
38, 72, 17, 66
38, 86, 67
38, 86, 68
38, 40, 69
38, 40, 70
38, 71
38, 72
38, 92, 73
38, 92, 74
38, 79, 74
38, 20, 74
38, 59, 75
38, 15, 75
38, 59, 76
38, 20, 93, 77
38, 40, 93, 77
38, 20, 48, 77
38, 40, 48, 77
38, 15, 78
38, 79
38, 92, 36, 80
38, 40, 69, 80
38, 20, 48, 80
38, 40, 48, 80
38, 15, 26, 80
38, 15, 7, 80
38, 59, 7, 80
38, 92, 81
38, 92, 84, 82
38, 72, 17, 82
38, 40, 31, 82
38, 40, 9, 82
38, 72, 9, 82
38, 86, 9, 82
38, 40, 4, 82
38, 86, 4, 82
38, 20, 22, 82
38, 15, 7, 82
38, 59, 7, 82
38, 71, 62, 83
38, 42, 14, 83
38, 92, 14, 83
38, 40, 95, 83
38, 72, 95, 83
38, 20, 6, 83
38, 15, 7, 83
38, 59, 7, 83
38, 92, 84
38, 92, 85
38, 86
38, 42, 87
38, 86, 68, 88
38, 86, 67, 88
38, 59, 76, 88
38, 42, 14, 88
38, 92, 14, 88
38, 40, 70, 88
38, 20, 94, 88
38, 59, 94, 88
38, 20, 6, 88
38, 15, 89
38, 71, 8, 90
38, 20, 6, 90
38, 15, 51, 90
38, 71, 51, 90
38, 86, 51, 90
38, 42, 91
38, 20, 91
38, 92
38, 40, 93
38, 20, 93
38, 59, 94
38, 20, 94
38, 72, 95
38, 40, 95
38, 79, 96
38, 71, 96
38, 20, 96
38, 20, 97
38, 42, 35, 98
38, 92, 35, 98
38, 40, 100, 98
38, 20, 46, 98
38, 42, 46, 98
38, 15, 75, 98
38, 59, 75, 98
38, 71, 30, 99
38, 72, 30, 99
38, 40, 9, 99
38, 72, 9, 99
38, 86, 9, 99
38, 40, 100
