26, 80, 1
26, 5, 1
26, 73, 81, 2
26, 73, 14, 2
26, 70, 96, 2
26, 70, 49, 2
26, 43, 52, 2
26, 56, 52, 2
26, 56, 3
26, 43, 4
26, 5
26, 73, 81, 6
26, 73, 25, 6
26, 73, 20, 6
26, 30, 78, 6
26, 80, 78, 6
26, 5, 1, 6
26, 80, 1, 6
26, 80, 39, 7
26, 70, 28, 7
26, 95, 28, 7
26, 5, 15, 7
26, 95, 32, 8
26, 43, 19, 8
26, 5, 47, 8
26, 95, 47, 8
26, 95, 54, 9
26, 80, 82, 9
26, 80, 39, 9
26, 73, 14, 9
26, 70, 86, 9
26, 43, 19, 9
26, 30, 29, 9
26, 5, 40, 9
26, 73, 40, 9
26, 95, 10
26, 56, 11
26, 36, 11
26, 80, 66, 12
26, 80, 39, 12
26, 73, 20, 12
26, 73, 14, 12
26, 70, 94, 12
26, 70, 45, 12
26, 95, 45, 12
26, 56, 88, 12
26, 70, 88, 12
26, 36, 51, 12
26, 5, 15, 12
26, 95, 13
26, 73, 14
26, 5, 15
26, 43, 16
26, 36, 16
26, 30, 17
26, 56, 18
26, 5, 18
26, 43, 19
26, 73, 20
26, 56, 21
26, 95, 54, 22
26, 95, 10, 22
26, 73, 20, 22
26, 70, 49, 22
26, 5, 93, 22
26, 73, 81, 23
26, 70, 96, 23
26, 70, 86, 23
26, 70, 28, 23
26, 95, 28, 23
26, 36, 69, 23
26, 56, 69, 23
26, 80, 69, 23
26, 36, 11, 23
26, 56, 11, 23
26, 5, 93, 23
26, 5, 18, 23
26, 56, 18, 23
26, 43, 24
26, 73, 25
26
26, 56, 88, 27
26, 70, 88, 27
26, 5, 40, 27
26, 73, 40, 27
26, 95, 28
26, 70, 28
26, 30, 29
26, 30
26, 95, 31
26, 95, 32
26, 95, 54, 33
26, 95, 13, 33
26, 80, 82, 33
26, 73, 25, 33
26, 43, 24, 33
26, 36, 69, 33
26, 56, 69, 33
26, 80, 69, 33
26, 36, 11, 33
26, 56, 11, 33
26, 30, 79, 33
26, 5, 93, 33
26, 5, 84, 33
26, 30, 84, 33
26, 43, 84, 33
26, 95, 84, 33
26, 73, 81, 34
26, 73, 25, 34
26, 30, 79, 34
26, 95, 83, 35
26, 95, 13, 35
26, 43, 75, 35
26, 43, 24, 35
26, 36, 16, 35
26, 43, 16, 35
26, 36
26, 70, 94, 37
26, 70, 49, 37
26, 36, 69, 37
26, 56, 69, 37
26, 80, 69, 37
26, 73, 14, 38
26, 70, 94, 38
26, 70, 45, 38
26, 95, 45, 38
26, 5, 84, 38
26, 30, 84, 38
26, 43, 84, 38
26, 95, 84, 38
26, 5, 63, 38
26, 73, 63, 38
26, 5, 18, 38
26, 56, 18, 38
26, 5, 15, 38
26, 80, 39
26, 73, 40
26, 5, 40
26, 80, 82, 41
26, 80, 66, 41
26, 70, 28, 41
26, 95, 28, 41
26, 30, 87, 41
26, 30, 79, 41
26, 5, 84, 41
26, 30, 84, 41
26, 43, 84, 41
26, 95, 84, 41
26, 95, 32, 42
26, 95, 31, 42
26, 36, 85, 42
26, 36, 51, 42
26, 30, 79, 42
26, 30, 61, 42
26, 5, 93, 42
26, 43
26, 80, 39, 44
26, 73, 81, 44
26, 70, 94, 44
26, 43, 75, 44
26, 5, 15, 44
26, 95, 45
26, 70, 45
26, 80, 66, 46
26, 73, 20, 46
26, 56, 98, 46
26, 36, 16, 46
26, 43, 16, 46
26, 95, 47
26, 5, 47
26, 95, 54, 48
26, 95, 32, 48
26, 73, 20, 48
26, 70, 96, 48
26, 70, 49, 48
26, 70, 45, 48
26, 95, 45, 48
26, 70, 28, 48
26, 95, 28, 48
26, 56, 88, 48
26, 70, 88, 48
26, 5, 93, 48
26, 5, 40, 48
26, 73, 40, 48
26, 70, 49
26, 95, 13, 50
26, 80, 66, 50
26, 70, 86, 50
26, 70, 49, 50
26, 43, 52, 50
26, 56, 52, 50
26, 36, 51, 50
26, 36, 51
26, 56, 52
26, 43, 52
26, 95, 13, 53
26, 43, 75, 53
26, 36, 76, 53
26, 36, 11, 53
26, 56, 11, 53
26, 30, 99, 53
26, 30, 61, 53
26, 30, 29, 53
26, 95, 54
26, 95, 10, 55
26, 70, 49, 55
26, 70, 28, 55
26, 95, 28, 55
26, 43, 75, 55
26, 30, 79, 55
26, 5, 93, 55
26, 5, 1, 55
26, 80, 1, 55
26, 56
26, 95, 32, 57
26, 43, 19, 57
26, 36, 51, 57
26, 30, 61, 57
26, 70, 58
26, 5, 58
26, 95, 10, 59
26, 70, 45, 59
26, 95, 45, 59
26, 36, 85, 59
26, 30, 79, 59
26, 30, 78, 59
26, 80, 78, 59
26, 95, 54, 60
26, 80, 39, 60
26, 43, 4, 60
26, 36, 76, 60
26, 36, 69, 60
26, 56, 69, 60
26, 80, 69, 60
26, 36, 51, 60
26, 30, 61
26, 73, 81, 62
26, 70, 28, 62
26, 95, 28, 62
26, 43, 24, 62
26, 43, 4, 62
26, 36, 76, 62
26, 36, 16, 62
26, 43, 16, 62
26, 30, 99, 62
26, 30, 87, 62
26, 5, 58, 62
26, 70, 58, 62
26, 5, 18, 62
26, 56, 18, 62
26, 73, 63
26, 5, 63
26, 95, 31, 64
26, 30, 29, 64
26, 95, 31, 65
26, 70, 94, 65
26, 70, 86, 65
26, 43, 4, 65
26, 30, 29, 65
26, 5, 63, 65
26, 73, 63, 65
26, 5, 15, 65
26, 80, 66
26, 95, 13, 67
26, 80, 66, 67
26, 73, 25, 67
26, 70, 86, 67
26, 43, 52, 67
26, 56, 52, 67
26, 95, 10, 68
26, 70, 86, 68
26, 36, 85, 68
26, 36, 51, 68
26, 30, 78, 68
26, 80, 78, 68
26, 5, 93, 68
26, 5, 63, 68
26, 73, 63, 68
26, 5, 18, 68
26, 56, 18, 68
26, 80, 69
26, 56, 69
26, 36, 69
26, 70
26, 95, 31, 71
26, 73, 20, 71
26, 43, 75, 71
26, 43, 24, 71
26, 43, 19, 71
26, 30, 29, 71
26, 5, 58, 71
26, 70, 58, 71
26, 70, 45, 72
26, 95, 45, 72
26, 36, 69, 72
26, 56, 69, 72
26, 80, 69, 72
26, 73
26, 73, 20, 74
26, 70, 94, 74
26, 36, 76, 74
26, 30, 79, 74
26, 5, 58, 74
26, 70, 58, 74
26, 43, 75
26, 36, 76
26, 43, 19, 77
26, 30, 29, 77
26, 5, 93, 77
26, 5, 47, 77
26, 95, 47, 77
26, 80, 78
26, 30, 78
26, 30, 79
26, 80
26, 73, 81
26, 80, 82
26, 95, 83
26, 95, 84
26, 43, 84
26, 30, 84
26, 5, 84
26, 36, 85
26, 70, 86
26, 30, 87
26, 70, 88
26, 56, 88
26, 70, 94, 89
26, 43, 75, 89
26, 30, 29, 89
26, 30, 17, 89
26, 5, 15, 89
26, 5, 1, 89
26, 80, 1, 89
26, 56, 88, 90
26, 70, 88, 90
26, 36, 51, 90
26, 30, 29, 90
26, 5, 47, 90
26, 95, 47, 90
26, 95, 10, 91
26, 73, 20, 91
26, 80, 82, 92
26, 56, 98, 92
26, 43, 24, 92
26, 43, 19, 92
26, 43, 4, 92
26, 36, 85, 92
26, 36, 11, 92
26, 56, 11, 92
26, 30, 29, 92
26, 5, 18, 92
26, 56, 18, 92
26, 5, 93
26, 70, 94
26, 95
26, 70, 96
26, 30, 97
26, 56, 98
26, 30, 99
26, 70, 49, 100
26, 30, 29, 100
26, 5, 40, 100
26, 73, 40, 100
26, 5, 1, 100
26, 80, 1, 100
