53, 95, 54, 1
53, 95, 31, 1
53, 84, 32, 1
53, 95, 32, 1
53, 82, 96, 1
53, 37, 6, 1
53, 89, 6, 1
53, 15, 65, 1
53, 7, 80, 1
53, 7, 5, 1
53, 52, 2
53, 7, 2
53, 84, 3
53, 15, 3
53, 52, 4
53, 7, 5
53, 89, 6
53, 37, 6
53, 7
53, 84, 32, 8
53, 95, 32, 8
53, 82, 47, 8
53, 95, 47, 8
53, 82, 33, 8
53, 84, 33, 8
53, 92, 33, 8
53, 82, 19, 8
53, 52, 67, 8
53, 52, 50, 8
53, 82, 9
53, 95, 10
53, 52, 10
53, 92, 85, 11
53, 92, 36, 11
53, 89, 74, 11
53, 92, 74, 11
53, 60, 56, 11
53, 84, 56, 11
53, 60, 41, 11
53, 82, 41, 11
53, 84, 41, 11
53, 52, 24, 11
53, 15, 75, 11
53, 60, 75, 11
53, 7, 28, 11
53, 95, 28, 11
53, 7, 2, 11
53, 52, 2, 11
53, 15, 12
53, 95, 13
53, 84, 13
53, 37, 13
53, 92, 14
53, 15
53, 84, 16
53, 92, 72, 17
53, 60, 29, 17
53, 37, 25, 17
53, 92, 25, 17
53, 60, 18
53, 52, 18
53, 37, 18
53, 82, 19
53, 92, 85, 20
53, 89, 74, 20
53, 92, 74, 20
53, 84, 73, 20
53, 92, 73, 20
53, 60, 41, 20
53, 82, 41, 20
53, 84, 41, 20
53, 60, 40, 20
53, 92, 40, 20
53, 52, 10, 20
53, 95, 10, 20
53, 15, 38, 20
53, 84, 38, 20
53, 7, 61, 20
53, 82, 96, 21
53, 60, 56, 21
53, 84, 56, 21
53, 15, 3, 21
53, 84, 3, 21
53, 95, 54, 22
53, 92, 35, 22
53, 82, 9, 22
53, 60, 41, 22
53, 82, 41, 22
53, 84, 41, 22
53, 52, 10, 22
53, 95, 10, 22
53, 37, 49, 22
53, 89, 49, 22
53, 7, 93, 22
53, 89, 93, 22
53, 82, 96, 23
53, 52, 50, 23
53, 37, 18, 23
53, 52, 18, 23
53, 60, 18, 23
53, 7, 93, 23
53, 89, 93, 23
53, 7, 81, 23
53, 82, 81, 23
53, 84, 81, 23
53, 89, 81, 23
53, 92, 81, 23
53, 7, 28, 23
53, 95, 28, 23
53, 52, 24
53, 92, 25
53, 37, 25
53, 95, 26
53, 15, 26
53, 60, 41, 27
53, 82, 41, 27
53, 84, 41, 27
53, 60, 40, 27
53, 92, 40, 27
53, 52, 88, 27
53, 15, 44, 27
53, 95, 28
53, 7, 28
53, 60, 29
53, 92, 72, 30
53, 60, 41, 30
53, 82, 41, 30
53, 84, 41, 30
53, 52, 10, 30
53, 95, 10, 30
53, 37, 18, 30
53, 52, 18, 30
53, 60, 18, 30
53, 15, 26, 30
53, 95, 26, 30
53, 95, 31
53, 95, 32
53, 84, 32
53, 92, 33
53, 84, 33
53, 82, 33
53, 92, 72, 34
53, 52, 50, 34
53, 37, 25, 34
53, 92, 25, 34
53, 7, 81, 34
53, 82, 81, 34
53, 84, 81, 34
53, 89, 81, 34
53, 92, 81, 34
53, 7, 79, 34
53, 7, 2, 34
53, 52, 2, 34
53, 92, 35
53, 92, 36
53, 37
53, 84, 38
53, 15, 38
53, 15, 39
53, 92, 40
53, 60, 40
53, 84, 41
53, 82, 41
53, 60, 41
53, 95, 31, 42
53, 92, 85, 42
53, 84, 32, 42
53, 95, 32, 42
53, 82, 9, 42
53, 15, 51, 42
53, 89, 51, 42
53, 15, 38, 42
53, 84, 38, 42
53, 7, 93, 42
53, 89, 93, 42
53, 7, 79, 42
53, 7, 61, 42
53, 92, 43
53, 15, 44
53, 95, 45
53, 37, 45
53, 15, 45
53, 84, 16, 46
53, 82, 66, 46
53, 95, 47
53, 82, 47
53, 95, 54, 48
53, 89, 68, 48
53, 84, 32, 48
53, 95, 32, 48
53, 82, 96, 48
53, 60, 40, 48
53, 92, 40, 48
53, 52, 88, 48
53, 37, 49, 48
53, 89, 49, 48
53, 15, 45, 48
53, 37, 45, 48
53, 95, 45, 48
53, 7, 93, 48
53, 89, 93, 48
53, 7, 28, 48
53, 95, 28, 48
53, 89, 49
53, 37, 49
53, 52, 50
53, 89, 51
53, 15, 51
53, 52
53
53, 95, 54
53, 92, 35, 55
53, 52, 10, 55
53, 95, 10, 55
53, 37, 49, 55
53, 89, 49, 55
53, 15, 75, 55
53, 60, 75, 55
53, 7, 93, 55
53, 89, 93, 55
53, 7, 79, 55
53, 7, 28, 55
53, 95, 28, 55
53, 84, 56
53, 60, 56
53, 84, 32, 57
53, 95, 32, 57
53, 82, 33, 57
53, 84, 33, 57
53, 92, 33, 57
53, 82, 19, 57
53, 15, 51, 57
53, 89, 51, 57
53, 7, 61, 57
53, 7, 58
53, 92, 85, 59
53, 52, 10, 59
53, 95, 10, 59
53, 15, 78, 59
53, 15, 45, 59
53, 37, 45, 59
53, 95, 45, 59
53, 15, 38, 59
53, 84, 38, 59
53, 7, 79, 59
53, 60
53, 7, 61
53, 84, 16, 62
53, 82, 33, 62
53, 84, 33, 62
53, 92, 33, 62
53, 52, 50, 62
53, 52, 24, 62
53, 52, 4, 62
53, 37, 76, 62
53, 37, 18, 62
53, 52, 18, 62
53, 60, 18, 62
53, 37, 6, 62
53, 89, 6, 62
53, 7, 81, 62
53, 82, 81, 62
53, 84, 81, 62
53, 89, 81, 62
53, 92, 81, 62
53, 7, 58, 62
53, 7, 28, 62
53, 95, 28, 62
53, 84, 73, 63
53, 92, 73, 63
53, 37, 25, 63
53, 92, 25, 63
53, 15, 51, 63
53, 89, 51, 63
53, 15, 12, 63
53, 7, 83, 63
53, 82, 83, 63
53, 95, 83, 63
53, 7, 5, 63
53, 95, 31, 64
53, 60, 29, 64
53, 15, 65
53, 82, 66
53, 52, 67
53, 89, 68
53, 92, 36, 69
53, 82, 96, 69
53, 60, 56, 69
53, 84, 56, 69
53, 60, 40, 69
53, 92, 40, 69
53, 7, 80, 69
53, 84, 70
53, 95, 31, 71
53, 89, 68, 71
53, 82, 19, 71
53, 60, 29, 71
53, 52, 24, 71
53, 15, 75, 71
53, 60, 75, 71
53, 15, 38, 71
53, 84, 38, 71
53, 7, 58, 71
53, 92, 72
53, 92, 73
53, 84, 73
53, 92, 74
53, 89, 74
53, 60, 75
53, 15, 75
53, 37, 76
53, 82, 47, 77
53, 95, 47, 77
53, 82, 19, 77
53, 60, 29, 77
53, 7, 93, 77
53, 89, 93, 77
53, 15, 78
53, 7, 79
53, 7, 80
53, 92, 81
53, 89, 81
53, 84, 81
53, 82, 81
53, 7, 81
53, 82
53, 95, 83
53, 82, 83
53, 7, 83
53, 84
53, 92, 85
53, 89, 91, 86
53, 84, 70, 86
53, 84, 32, 86
53, 95, 32, 86
53, 84, 16, 86
53, 37, 76, 86
53, 15, 38, 86
53, 84, 38, 86
53, 7, 83, 86
53, 82, 83, 86
53, 95, 83, 86
53, 7, 79, 86
53, 7, 2, 86
53, 52, 2, 86
53, 92, 85, 87
53, 89, 74, 87
53, 92, 74, 87
53, 60, 41, 87
53, 82, 41, 87
53, 84, 41, 87
53, 52, 4, 87
53, 37, 13, 87
53, 84, 13, 87
53, 95, 13, 87
53, 52, 88
53, 89
53, 82, 47, 90
53, 95, 47, 90
53, 60, 29, 90
53, 52, 88, 90
53, 37, 6, 90
53, 89, 6, 90
53, 15, 51, 90
53, 89, 51, 90
53, 89, 91
53, 92
53, 89, 93
53, 7, 93
53, 84, 94
53, 52, 94
53, 95
53, 82, 96
53, 95, 31, 97
53, 89, 91, 97
53, 95, 54, 98
53, 92, 35, 98
53, 84, 32, 98
53, 95, 32, 98
53, 82, 47, 98
53, 95, 47, 98
53, 60, 56, 98
53, 84, 56, 98
53, 60, 29, 98
53, 52, 88, 98
53, 15, 75, 98
53, 60, 75, 98
53, 84, 32, 99
53, 95, 32, 99
53, 82, 9, 99
53, 60, 40, 100
53, 92, 40, 100
53, 60, 29, 100
53, 37, 49, 100
53, 89, 49, 100
