74, 78, 32, 1
74, 84, 32, 1
74, 75, 54, 1
74, 29, 17, 1
74, 20, 96, 1
74, 20, 46, 1
74, 20, 6, 1
74, 78, 6, 1
74, 15, 65, 1
74, 29, 65, 1
74, 11, 31, 1
74, 7, 80, 1
74, 7, 5, 1
74, 87, 5, 1
74, 7, 2
74, 84, 3
74, 15, 3
74, 87, 85, 4
74, 87, 62, 4
74, 87, 49, 4
74, 78, 68, 4
74, 78, 43, 4
74, 78, 14, 4
74, 29, 52, 4
74, 20, 6, 4
74, 78, 6, 4
74, 11, 45, 4
74, 15, 45, 4
74, 87, 5
74, 7, 5
74, 78, 6
74, 20, 6
74, 7
74, 87, 47, 8
74, 78, 32, 8
74, 84, 32, 8
74, 20, 71, 8
74, 29, 71, 8
74, 75, 71, 8
74, 11, 33, 8
74, 84, 33, 8
74, 11, 23, 8
74, 29, 9
74, 11, 10
74, 11
74, 20, 12
74, 15, 12
74, 84, 13
74, 78, 14
74, 15
74, 84, 16
74, 29, 17
74, 84, 16, 18
74, 75, 56, 18
74, 78, 56, 18
74, 84, 56, 18
74, 29, 52, 18
74, 20, 71, 18
74, 29, 71, 18
74, 75, 71, 18
74, 11, 10, 18
74, 7, 5, 18
74, 87, 5, 18
74, 87, 62, 19
74, 87, 49, 19
74, 84, 13, 19
74, 78, 43, 19
74, 29, 77, 19
74, 29, 9, 19
74, 11, 33, 19
74, 84, 33, 19
74, 7, 82, 19
74, 84, 82, 19
74, 20
74, 75, 56, 21
74, 78, 56, 21
74, 84, 56, 21
74, 29, 90, 21
74, 20, 96, 21
74, 15, 3, 21
74, 84, 3, 21
74, 20, 22
74, 11, 23
74, 78, 59, 24
74, 78, 43, 24
74, 78, 32, 24
74, 84, 32, 24
74, 78, 14, 24
74, 29, 77, 24
74, 29, 52, 24
74, 29, 9, 24
74, 20, 71, 24
74, 29, 71, 24
74, 75, 71, 24
74, 15, 3, 24
74, 84, 3, 24
74, 11, 23, 24
74, 75, 73, 25
74, 84, 73, 25
74, 75, 55, 25
74, 20, 91, 25
74, 20, 22, 25
74, 11, 92, 25
74, 29, 92, 25
74, 7, 81, 25
74, 84, 81, 25
74, 87, 26
74, 15, 26
74, 11, 26
74, 84, 41, 27
74, 87, 41, 27
74, 15, 44, 27
74, 75, 44, 27
74, 7, 28
74, 29
74, 84, 41, 30
74, 87, 41, 30
74, 20, 71, 30
74, 29, 71, 30
74, 75, 71, 30
74, 20, 46, 30
74, 11, 26, 30
74, 15, 26, 30
74, 87, 26, 30
74, 11, 10, 30
74, 11, 31
74, 84, 32
74, 78, 32
74, 84, 33
74, 11, 33
74, 20, 48, 34
74, 7, 81, 34
74, 84, 81, 34
74, 7, 79, 34
74, 7, 2, 34
74, 75, 35
74, 78, 36
74, 87, 49, 37
74, 20, 94, 37
74, 84, 94, 37
74, 15, 89, 37
74, 29, 89, 37
74, 75, 89, 37
74, 11, 92, 37
74, 29, 92, 37
74, 11, 53, 37
74, 29, 53, 37
74, 75, 53, 37
74, 84, 38
74, 15, 38
74, 15, 39
74, 87, 62, 40
74, 75, 73, 40
74, 84, 73, 40
74, 29, 90, 40
74, 29, 64, 40
74, 20, 96, 40
74, 20, 71, 40
74, 29, 71, 40
74, 75, 71, 40
74, 15, 38, 40
74, 84, 38, 40
74, 15, 12, 40
74, 20, 12, 40
74, 11, 92, 40
74, 29, 92, 40
74, 11, 23, 40
74, 7, 5, 40
74, 87, 5, 40
74, 87, 41
74, 84, 41
74, 87, 85, 42
74, 78, 32, 42
74, 84, 32, 42
74, 29, 9, 42
74, 15, 51, 42
74, 29, 51, 42
74, 78, 51, 42
74, 15, 38, 42
74, 84, 38, 42
74, 11, 31, 42
74, 7, 93, 42
74, 20, 93, 42
74, 7, 79, 42
74, 7, 61, 42
74, 87, 61, 42
74, 78, 43
74, 75, 44
74, 15, 44
74, 15, 45
74, 11, 45
74, 20, 46
74, 87, 47
74, 20, 48
74, 87, 49
74, 87, 49, 50
74, 84, 13, 50
74, 29, 52, 50
74, 20, 91, 50
74, 15, 51, 50
74, 29, 51, 50
74, 78, 51, 50
74, 15, 44, 50
74, 75, 44, 50
74, 15, 12, 50
74, 20, 12, 50
74, 78, 51
74, 29, 51
74, 15, 51
74, 29, 52
74, 75, 53
74, 29, 53
74, 11, 53
74, 75, 54
74, 75, 55
74, 84, 56
74, 78, 56
74, 75, 56
74, 78, 32, 57
74, 84, 32, 57
74, 29, 77, 57
74, 20, 46, 57
74, 15, 51, 57
74, 29, 51, 57
74, 78, 51, 57
74, 11, 33, 57
74, 84, 33, 57
74, 7, 61, 57
74, 87, 61, 57
74, 29, 58
74, 7, 58
74, 78, 59
74, 75, 54, 60
74, 20, 6, 60
74, 78, 6, 60
74, 15, 51, 60
74, 29, 51, 60
74, 78, 51, 60
74, 15, 39, 60
74, 15, 12, 60
74, 20, 12, 60
74, 11, 53, 60
74, 29, 53, 60
74, 75, 53, 60
74, 11, 23, 60
74, 87, 61
74, 7, 61
74, 87, 62
74, 87, 62, 63
74, 75, 73, 63
74, 84, 73, 63
74, 75, 55, 63
74, 15, 51, 63
74, 29, 51, 63
74, 78, 51, 63
74, 15, 12, 63
74, 20, 12, 63
74, 7, 83, 63
74, 7, 5, 63
74, 87, 5, 63
74, 29, 64
74, 29, 65
74, 15, 65
74, 87, 85, 66
74, 29, 17, 66
74, 11, 10, 66
74, 7, 82, 66
74, 84, 82, 66
74, 7, 81, 66
74, 84, 81, 66
74, 7, 80, 66
74, 84, 13, 67
74, 29, 52, 67
74, 78, 68
74, 78, 36, 69
74, 75, 56, 69
74, 78, 56, 69
74, 84, 56, 69
74, 20, 96, 69
74, 20, 48, 69
74, 7, 80, 69
74, 84, 70
74, 75, 71
74, 29, 71
74, 20, 71
74, 29, 90, 72
74, 15, 38, 72
74, 84, 38, 72
74, 11, 92, 72
74, 29, 92, 72
74, 11, 45, 72
74, 15, 45, 72
74, 11, 23, 72
74, 84, 73
74, 75, 73
74
74:75
74, 87, 47, 76
74, 84, 13, 76
74, 78, 59, 76
74, 78, 36, 76
74, 78, 14, 76
74, 75, 35, 76
74, 20, 96, 76
74, 7, 81, 76
74, 84, 81, 76
74, 29, 77
74, 78
74, 7, 79
74, 7, 80
74, 84, 81
74, 7, 81
74, 84, 82
74, 7, 82
74, 7, 83
74, 84
74, 87, 85
74, 84, 70, 86
74, 84, 16, 86
74, 78, 32, 86
74, 84, 32, 86
74, 20, 91, 86
74, 20, 71, 86
74, 29, 71, 86
74, 75, 71, 86
74, 15, 38, 86
74, 84, 38, 86
74, 7, 83, 86
74, 7, 79, 86
74, 7, 2, 86
74, 87
74, 84, 70, 88
74, 78, 68, 88
74, 78, 14, 88
74, 75, 56, 88
74, 78, 56, 88
74, 84, 56, 88
74, 29, 52, 88
74, 20, 94, 88
74, 84, 94, 88
74, 20, 6, 88
74, 78, 6, 88
74, 75, 89
74, 29, 89
74, 15, 89
74, 29, 90
74, 20, 91
74, 29, 92
74, 11, 92
74, 20, 93
74, 7, 93
74, 84, 94
74, 20, 94
74, 75, 95
74, 20, 96
74, 20, 97
74, 75, 98
74, 29, 98
74, 78, 32, 99
74, 84, 32, 99
74, 29, 9, 99
74, 29, 100
