59, 94, 65, 1
59, 75, 54, 1
59, 76, 54, 1
59, 24, 31, 1
59, 76, 31, 1
59, 7, 80, 1
59, 7, 5, 1
59, 7, 2
59, 24, 3
59, 38, 86, 4
59, 76, 86, 4
59, 24, 62, 4
59, 76, 62, 4
59, 24, 40, 4
59, 38, 40, 4
59, 7, 5
59, 94, 37, 6
59, 94, 12, 6
59, 75, 89, 6
59, 94, 89, 6
59, 38, 20, 6
59, 7, 81, 6
59, 7
59, 24, 71, 8
59, 38, 71, 8
59, 75, 71, 8
59, 24, 33, 8
59, 75, 54, 9
59, 76, 54, 9
59, 75, 44, 9
59, 94, 44, 9
59, 38, 86, 9
59, 76, 86, 9
59, 38, 72, 9
59, 24, 62, 9
59, 76, 62, 9
59, 24, 40, 9
59, 38, 40, 9
59, 24, 29, 9
59, 7, 82, 9
59, 75, 95, 10
59, 76, 95, 10
59, 24, 62, 10
59, 76, 62, 10
59, 24, 11, 10
59, 75, 11, 10
59, 7, 79, 10
59, 38, 79, 10
59, 75, 11
59, 24, 11
59, 94, 12
59, 94, 37, 13
59, 94, 12, 13
59, 75, 95, 13
59, 76, 95, 13
59, 38, 86, 13
59, 76, 86, 13
59, 7, 58, 13
59, 94, 12, 14
59, 76, 88, 14
59, 94, 88, 14
59, 75, 54, 14
59, 76, 54, 14
59, 38, 42, 14
59, 24, 92, 14
59, 38, 92, 14
59, 24, 73, 14
59, 75, 73, 14
59, 7, 83, 14
59, 38, 15
59, 76, 36, 16
59, 24, 31, 16
59, 76, 31, 16
59, 7, 58, 16
59, 75, 98, 17
59, 38, 72, 17
59, 24, 62, 17
59, 76, 62, 17
59, 24, 29, 17
59, 94, 37, 18
59, 76, 60, 18
59, 75, 56, 18
59, 24, 71, 18
59, 38, 71, 18
59, 75, 71, 18
59, 7, 5, 18
59, 24, 62, 19
59, 76, 62, 19
59, 24, 33, 19
59, 7, 82, 19
59, 38, 20
59, 75, 56, 21
59, 24, 3, 21
59, 75, 54, 22
59, 76, 54, 22
59, 38, 20, 22
59, 24, 35, 22
59, 75, 35, 22
59, 7, 93, 22
59, 38, 86, 23
59, 76, 86, 23
59, 38, 42, 23
59, 24, 11, 23
59, 75, 11, 23
59, 7, 93, 23
59, 7, 81, 23
59, 7, 28, 23
59, 24
59, 94, 37, 25
59, 75, 55, 25
59, 38, 42, 25
59, 24, 92, 25
59, 38, 92, 25
59, 24, 73, 25
59, 75, 73, 25
59, 7, 81, 25
59, 75, 95, 26
59, 76, 95, 26
59, 38, 15, 26
59, 24, 11, 26
59, 75, 11, 26
59, 7, 81, 26
59, 76, 88, 27
59, 94, 88, 27
59, 75, 44, 27
59, 94, 44, 27
59, 24, 40, 27
59, 38, 40, 27
59, 7, 28
59, 24, 29
59, 38, 72, 30
59, 24, 71, 30
59, 38, 71, 30
59, 75, 71, 30
59, 76, 31
59, 24, 31
59, 94, 65, 32
59, 75, 95, 32
59, 76, 95, 32
59, 75, 44, 32
59, 94, 44, 32
59, 24, 35, 32
59, 75, 35, 32
59, 24, 33
59, 38, 72, 34
59, 7, 81, 34
59, 7, 79, 34
59, 38, 79, 34
59, 7, 2, 34
59, 75, 35
59, 24, 35
59, 76, 36
59, 94, 37
59, 38
59, 38, 15, 39
59, 24, 35, 39
59, 75, 35, 39
59, 7, 80, 39
59, 38, 40
59, 24, 40
59, 76, 60, 41
59, 7, 82, 41
59, 7, 79, 41
59, 38, 79, 41
59, 7, 28, 41
59, 7, 2, 41
59, 38, 42
59, 76, 36, 43
59, 24, 92, 43
59, 38, 92, 43
59, 24, 35, 43
59, 75, 35, 43
59, 94, 44
59, 75, 44
59, 94, 65, 45
59, 94, 37, 45
59, 75, 95, 45
59, 76, 95, 45
59, 38, 86, 45
59, 76, 86, 45
59, 38, 15, 45
59, 24, 62, 45
59, 76, 62, 45
59, 24, 40, 45
59, 38, 40, 45
59, 24, 11, 45
59, 75, 11, 45
59, 7, 61, 45
59, 75, 98, 46
59, 38, 42, 46
59, 38, 20, 46
59, 75, 95, 47
59, 76, 95, 47
59, 24, 33, 47
59, 7, 82, 47
59, 7, 61, 47
59, 7, 28, 47
59, 7, 5, 47
59, 76, 88, 48
59, 94, 88, 48
59, 75, 54, 48
59, 76, 54, 48
59, 38, 20, 48
59, 24, 40, 48
59, 38, 40, 48
59, 7, 93, 48
59, 7, 28, 48
59, 94, 37, 49
59, 75, 89, 49
59, 94, 89, 49
59, 75, 54, 49
59, 76, 54, 49
59, 38, 42, 49
59, 24, 71, 49
59, 38, 71, 49
59, 75, 71, 49
59, 94, 12, 50
59, 75, 44, 50
59, 94, 44, 50
59, 38, 86, 50
59, 76, 86, 50
59, 76, 88, 51
59, 94, 88, 51
59, 76, 36, 51
59, 75, 98, 51
59, 75, 89, 51
59, 94, 89, 51
59, 38, 86, 51
59, 76, 86, 51
59, 38, 15, 51
59, 24, 71, 51
59, 38, 71, 51
59, 75, 71, 51
59, 24, 29, 51
59, 24, 3, 51
59, 75, 56, 52
59, 75, 54, 52
59, 76, 54, 52
59, 75, 53, 52
59, 76, 53, 52
59, 24, 62, 52
59, 76, 62, 52
59, 24, 29, 52
59, 76, 53
59, 75, 53
59, 76, 54
59, 75, 54
59, 75, 55
59, 75, 56
59, 24, 33, 57
59, 7, 61, 57
59, 7, 58
59
59, 76, 60
59, 7, 61
59, 76, 62
59, 24, 62
59, 94, 12, 63
59, 75, 55, 63
59, 24, 73, 63
59, 75, 73, 63
59, 24, 62, 63
59, 76, 62, 63
59, 7, 83, 63
59, 7, 5, 63
59, 75, 55, 64
59, 24, 62, 64
59, 76, 62, 64
59, 24, 31, 64
59, 76, 31, 64
59, 24, 29, 64
59, 94, 65
59, 7, 82, 66
59, 7, 81, 66
59, 7, 80, 66
59, 38, 86, 67
59, 76, 86, 67
59, 75, 89, 68
59, 94, 89, 68
59, 75, 55, 68
59, 75, 44, 68
59, 94, 44, 68
59, 38, 86, 68
59, 76, 86, 68
59, 7, 93, 68
59, 76, 36, 69
59, 75, 56, 69
59, 24, 40, 69
59, 38, 40, 69
59, 7, 80, 69
59, 76, 36, 70
59, 75, 55, 70
59, 24, 40, 70
59, 38, 40, 70
59, 24, 35, 70
59, 75, 35, 70
59, 24, 3, 70
59, 75, 71
59, 38, 71
59, 24, 71
59, 38, 72
59, 75, 73
59, 24, 73
59, 94, 74
59, 76, 74
59, 75
59, 76
59, 24, 29, 77
59, 7, 93, 77
59, 94, 65, 78
59, 76, 74, 78
59, 94, 74, 78
59, 75, 44, 78
59, 94, 44, 78
59, 38, 15, 78
59, 24, 33, 78
59, 7, 83, 78
59, 7, 80, 78
59, 38, 79
59, 7, 79
59, 7, 80
59, 7, 81
59, 7, 82
59, 7, 83
59, 76, 74, 84
59, 94, 74, 84
59, 75, 95, 84
59, 76, 95, 84
59, 75, 55, 84
59, 75, 53, 84
59, 76, 53, 84
59, 24, 92, 84
59, 38, 92, 84
59, 24, 31, 84
59, 76, 31, 84
59, 7, 5, 84
59, 76, 36, 85
59, 75, 54, 85
59, 76, 54, 85
59, 24, 92, 85
59, 38, 92, 85
59, 24, 62, 85
59, 76, 62, 85
59, 24, 31, 85
59, 76, 31, 85
59, 7, 58, 85
59, 76, 86
59, 38, 86
59, 76, 74, 87
59, 94, 74, 87
59, 38, 42, 87
59, 24, 11, 87
59, 75, 11, 87
59, 94, 88
59, 76, 88
59, 94, 89
59, 75, 89
59, 76, 88, 90
59, 94, 88, 90
59, 24, 29, 90
59, 75, 89, 91
59, 94, 89, 91
59, 38, 42, 91
59, 38, 20, 91
59, 24, 62, 91
59, 76, 62, 91
59, 38, 92
59, 24, 92
59, 7, 93
59, 94
59, 76, 95
59, 75, 95
59, 75, 55, 96
59, 75, 44, 96
59, 94, 44, 96
59, 38, 20, 96
59, 24, 71, 96
59, 38, 71, 96
59, 75, 71, 96
59, 7, 82, 96
59, 7, 81, 96
59, 7, 79, 96
59, 38, 79, 96
59, 38, 20, 97
59, 24, 31, 97
59, 76, 31, 97
59, 75, 98
59, 75, 71, 30, 99
59, 38, 71, 30, 99
59, 24, 71, 30, 99
59, 38, 72, 30, 99
59, 75, 35, 32, 99
59, 24, 35, 32, 99
59, 94, 44, 32, 99
59, 75, 44, 32, 99
59, 76, 95, 32, 99
59, 75, 95, 32, 99
59, 94, 65, 32, 99
59, 7, 82, 9, 99
59, 24, 29, 9, 99
59, 38, 40, 9, 99
59, 24, 40, 9, 99
59, 76, 62, 9, 99
59, 24, 62, 9, 99
59, 38, 72, 9, 99
59, 76, 86, 9, 99
59, 38, 86, 9, 99
59, 94, 44, 9, 99
59, 75, 44, 9, 99
59, 76, 54, 9, 99
59, 75, 54, 9, 99
59, 24, 40, 100
59, 38, 40, 100
59, 24, 29, 100
