20, 96, 1
20, 46, 1
20, 6, 1
20, 96, 2
20, 48, 2
20, 97, 56, 3
20, 91, 10, 3
20, 96, 10, 3
20, 97, 10, 3
20, 74, 15, 3
20, 71, 24, 3
20, 48, 77, 3
20, 93, 77, 3
20, 22, 84, 3
20, 74, 84, 3
20, 6, 4
20, 97, 58, 5
20, 91, 10, 5
20, 96, 10, 5
20, 97, 10, 5
20, 74, 87, 5
20, 48, 7, 5
20, 74, 7, 5
20, 12, 40, 5
20, 71, 40, 5
20, 96, 40, 5
20, 6, 51, 5
20, 71, 51, 5
20, 6, 1, 5
20, 46, 1, 5
20, 96, 1, 5
20, 6
20, 74, 7
20, 48, 7
20, 71, 8
20, 71, 86, 9
20, 91, 86, 9
20, 46, 39, 9
20, 96, 39, 9
20, 22, 82, 9
20, 22, 29, 9
20, 48, 29, 9
20, 74, 29, 9
20, 93, 29, 9
20, 12, 54, 9
20, 12, 44, 9
20, 94, 44, 9
20, 12, 40, 9
20, 71, 40, 9
20, 96, 40, 9
20, 12, 14, 9
20, 6, 62, 9
20, 22, 62, 9
20, 71, 62, 9
20, 97, 10
20, 96, 10
20, 91, 10
20, 74, 11
20, 48, 11
20, 46, 11
20, 12
20, 12, 13
20, 12, 14
20, 74, 15
20, 97, 58, 16
20, 96, 36, 16
20, 71, 18, 16
20, 48, 77, 16
20, 93, 77, 16
20, 48, 69, 16
20, 96, 69, 16
20, 46, 39, 16
20, 96, 39, 16
20, 22, 84, 16
20, 74, 84, 16
20, 48, 17
20, 22, 17
20, 71, 18
20, 48, 77, 19
20, 93, 77, 19
20, 48, 33, 19
20, 93, 33, 19
20, 22, 82, 19
20, 22, 49, 19
20, 71, 49, 19
20, 12, 13, 19
20, 6, 62, 19
20, 22, 62, 19
20, 71, 62, 19
20
20, 96, 21
20, 22
20, 96, 23
20, 93, 23
20, 71, 24
20, 91, 25
20, 22, 25
20, 74, 87, 26
20, 74, 15, 26
20, 71, 8, 26
20, 46, 57, 26
20, 46, 11, 26
20, 48, 11, 26
20, 74, 11, 26
20, 22, 95, 26
20, 12, 63, 26
20, 12, 44, 27
20, 94, 44, 27
20, 12, 40, 27
20, 71, 40, 27
20, 96, 40, 27
20, 6, 88, 27
20, 94, 88, 27
20, 6, 41, 27
20, 93, 28
20, 93, 29
20, 74, 29
20, 48, 29
20, 22, 29
20, 71, 30
20, 46, 30
20, 97, 58, 31
20, 96, 76, 31
20, 71, 24, 31
20, 71, 8, 31
20, 48, 47, 31
20, 48, 32, 31
20, 46, 39, 31
20, 96, 39, 31
20, 46, 11, 31
20, 48, 11, 31
20, 74, 11, 31
20, 22, 95, 31
20, 12, 40, 31
20, 71, 40, 31
20, 96, 40, 31
20, 48, 32
20, 93, 33
20, 48, 33
20, 48, 34
20, 12, 35
20, 96, 36
20, 94, 37
20, 94, 38
20, 96, 39
20, 46, 39
20, 96, 40
20, 71, 40
20, 12, 40
20, 6, 41
20, 93, 42
20, 96, 36, 43
20, 96, 21, 43
20, 93, 68, 43
20, 74, 78, 43
20, 12, 35, 43
20, 94, 44
20, 12, 44
20, 94, 65, 45
20, 94, 37, 45
20, 93, 68, 45
20, 93, 23, 45
20, 96, 23, 45
20, 74, 15, 45
20, 71, 86, 45
20, 91, 86, 45
20, 48, 47, 45
20, 46, 11, 45
20, 48, 11, 45
20, 74, 11, 45
20, 22, 95, 45
20, 12, 40, 45
20, 71, 40, 45
20, 96, 40, 45
20, 6, 62, 45
20, 22, 62, 45
20, 71, 62, 45
20, 46
20, 48, 47
20, 48
20, 71, 49
20, 22, 49
20, 91, 50
20, 12, 50
20, 71, 51
20, 6, 51
20, 97, 56, 52
20, 46, 57, 52
20, 22, 29, 52
20, 48, 29, 52
20, 74, 29, 52
20, 93, 29, 52
20, 12, 54, 52
20, 12, 53, 52
20, 12, 13, 52
20, 6, 62, 52
20, 22, 62, 52
20, 71, 62, 52
20, 12, 53
20, 12, 54
20, 93, 55
20, 71, 55
20, 97, 56
20, 46, 57
20, 97, 58
20, 94, 38, 59
20, 91, 10, 59
20, 96, 10, 59
20, 97, 10, 59
20, 74, 78, 59
20, 12, 79, 59
20, 96, 79, 59
20, 6, 85, 59
20, 12, 60
20, 6, 60
20, 93, 68, 61
20, 74, 87, 61
20, 48, 77, 61
20, 93, 77, 61
20, 48, 7, 61
20, 74, 7, 61
20, 46, 30, 61
20, 71, 30, 61
20, 6, 88, 61
20, 94, 88, 61
20, 6, 62, 61
20, 22, 62, 61
20, 71, 62, 61
20, 71, 62
20, 22, 62
20, 6, 62
20, 12, 63
20, 71, 55, 64
20, 93, 55, 64
20, 48, 34, 64
20, 22, 29, 64
20, 48, 29, 64
20, 74, 29, 64
20, 93, 29, 64
20, 6, 62, 64
20, 22, 62, 64
20, 71, 62, 64
20, 94, 65
20, 91, 10, 66
20, 96, 10, 66
20, 97, 10, 66
20, 48, 80, 66
20, 22, 82, 66
20, 22, 17, 66
20, 48, 17, 66
20, 6, 85, 66
20, 71, 86, 67
20, 91, 86, 67
20, 22, 25, 67
20, 91, 25, 67
20, 12, 13, 67
20, 93, 68
20, 96, 69
20, 48, 69
20, 96, 36, 70
20, 71, 55, 70
20, 93, 55, 70
20, 46, 30, 70
20, 71, 30, 70
20, 22, 84, 70
20, 74, 84, 70
20, 12, 40, 70
20, 71, 40, 70
20, 96, 40, 70
20, 12, 35, 70
20, 71
20, 94, 38, 72
20, 93, 23, 72
20, 96, 23, 72
20, 48, 69, 72
20, 96, 69, 72
20, 6, 90, 72
20, 74, 75, 73
20, 71, 24, 73
20, 48, 80, 73
20, 22, 84, 73
20, 74, 84, 73
20, 74
20, 74, 75
20, 96, 76
20, 93, 77
20, 48, 77
20, 74, 78
20, 96, 79
20, 12, 79
20, 48, 80
20, 94, 89, 81
20, 48, 7, 81
20, 74, 7, 81
20, 22, 84, 81
20, 74, 84, 81
20, 22, 82, 81
20, 12, 14, 81
20, 12, 13, 81
20, 6, 83, 81
20, 6, 51, 81
20, 71, 51, 81
20, 6, 41, 81
20, 22, 82
20, 6, 83
20, 74, 84
20, 22, 84
20, 6, 85
20, 91, 86
20, 71, 86
20, 74, 87
20, 94, 88
20, 6, 88
20, 94, 89
20, 6, 90
20, 91
20, 94, 38, 92
20, 71, 55, 92
20, 93, 55, 92
20, 71, 24, 92
20, 71, 18, 92
20, 46, 98, 92
20, 46, 11, 92
20, 48, 11, 92
20, 74, 11, 92
20, 22, 82, 92
20, 22, 29, 92
20, 48, 29, 92
20, 74, 29, 92
20, 93, 29, 92
20, 12, 53, 92
20, 6, 85, 92
20, 6, 60, 92
20, 12, 60, 92
20, 6, 4, 92
20, 93
20, 94
20, 22, 95
20, 96
20, 97
20, 46, 98
20, 48, 32, 99
20, 46, 30, 99
20, 71, 30, 99
20, 22, 49, 100
20, 71, 49, 100
20, 22, 29, 100
20, 48, 29, 100
20, 74, 29, 100
20, 93, 29, 100
20, 12, 40, 100
20, 71, 40, 100
20, 96, 40, 100
20, 6, 1, 100
20, 46, 1, 100
20, 96, 1, 100
