79, 96, 1
79, 96, 2
79, 10, 3
79, 86, 4
79, 10, 5
79, 96, 1, 6
79, 41, 81, 6
79, 34, 25, 6
79, 42, 25, 6
79, 55, 25, 6
79, 34, 12, 6
79, 33, 89, 6
79, 41, 89, 6
79, 33, 78, 6
79, 74, 78, 6
79, 10, 68, 6
79, 55, 68, 6
79, 86, 68, 6
79, 10, 20, 6
79, 41, 20, 6
79, 74, 20, 6
79, 74, 7
79, 59, 7
79, 33, 8
79, 86, 9
79, 10
79, 74, 11
79, 41, 11
79, 34, 12
79, 86, 13
79, 42, 14
79, 34, 14
79, 74, 15
79, 55, 15
79, 10, 15
79, 96, 69, 16
79, 96, 39, 16
79, 86, 45, 16
79, 55, 84, 16
79, 74, 84, 16
79, 55, 58, 16
79, 55, 36, 16
79, 96, 36, 16
79, 10, 18, 16
79, 96, 48, 17
79, 96, 21, 17
79, 74, 29, 17
79, 34, 25, 17
79, 42, 25, 17
79, 55, 25, 17
79, 33, 62, 17
79, 10, 30, 17
79, 41, 30, 17
79, 10, 22, 17
79, 41, 22, 17
79, 10, 18
79, 33, 19
79, 74, 20
79, 41, 20
79, 10, 20
79, 96, 21
79, 41, 22
79, 10, 22
79, 96, 23
79, 86, 23
79, 42, 23
79, 59, 24
79, 55, 25
79, 42, 25
79, 34, 25
79, 55, 63, 26
79, 41, 87, 26
79, 42, 87, 26
79, 74, 87, 26
79, 41, 81, 26
79, 41, 11, 26
79, 74, 11, 26
79, 33, 95, 26
79, 41, 95, 26
79, 33, 57, 26
79, 33, 8, 26
79, 10, 15, 26
79, 55, 15, 26
79, 74, 15, 26
79, 41, 27
79, 96, 39, 28
79, 86, 4, 28
79, 59, 7, 28
79, 74, 7, 28
79, 55, 70, 28
79, 34, 25, 28
79, 42, 25, 28
79, 55, 25, 28
79, 33, 95, 28
79, 41, 95, 28
79, 33, 57, 28
79, 74, 29
79, 41, 30
79, 10, 30
79, 96, 40, 31
79, 96, 39, 31
79, 59, 76, 31
79, 96, 76, 31
79, 59, 24, 31
79, 55, 58, 31
79, 41, 11, 31
79, 74, 11, 31
79, 33, 95, 31
79, 41, 95, 31
79, 33, 47, 31
79, 41, 47, 31
79, 33, 8, 31
79, 96, 48, 32
79, 86, 65, 32
79, 86, 4, 32
79, 55, 84, 32
79, 74, 84, 32
79, 42, 35, 32
79, 33, 95, 32
79, 41, 95, 32
79, 33, 78, 32
79, 74, 78, 32
79, 33, 57, 32
79, 33, 44, 32
79, 34, 44, 32
79, 42, 44, 32
79, 10, 18, 32
79, 33
79, 34
79, 42, 35
79, 96, 36
79, 55, 36
79, 96, 69, 37
79, 55, 92, 37
79, 42, 49, 37
79, 33, 89, 37
79, 41, 89, 37
79, 33, 53, 37
79, 10, 94, 37
79, 59, 94, 37
79, 59, 38
79, 96, 39
79, 96, 40
79, 41
79, 42
79, 96, 21, 43
79, 86, 45, 43
79, 86, 9, 43
79, 55, 92, 43
79, 55, 36, 43
79, 96, 36, 43
79, 42, 35, 43
79, 33, 78, 43
79, 74, 78, 43
79, 10, 68, 43
79, 55, 68, 43
79, 86, 68, 43
79, 42, 44
79, 34, 44
79, 33, 44
79, 86, 45
79, 42, 46
79, 41, 47
79, 33, 47
79, 96, 48
79, 42, 49
79, 86, 50
79, 86, 51
79, 86, 45, 52
79, 86, 13, 52
79, 74, 29, 52
79, 33, 62, 52
79, 33, 57, 52
79, 33, 54, 52
79, 33, 53, 52
79, 33, 53
79, 33, 54
79, 55
79, 55, 84, 56
79, 74, 84, 56
79, 55, 36, 56
79, 96, 36, 56
79, 42, 60, 56
79, 42, 35, 56
79, 42, 23, 56
79, 86, 23, 56
79, 96, 23, 56
79, 41, 75, 56
79, 59, 75, 56
79, 74, 75, 56
79, 33, 78, 56
79, 74, 78, 56
79, 33, 57
79, 55, 58
79, 59
79, 42, 60
79, 59, 7, 61
79, 74, 7, 61
79, 41, 87, 61
79, 42, 87, 61
79, 74, 87, 61
79, 33, 62, 61
79, 10, 68, 61
79, 55, 68, 61
79, 86, 68, 61
79, 10, 30, 61
79, 41, 30, 61
79, 33, 62
79, 55, 63
79, 55, 64
79, 34, 64
79, 86, 65
79, 10, 66
79, 86, 67
79, 86, 68
79, 55, 68
79, 10, 68
79, 96, 69
79, 55, 70
79, 34, 71
79, 96, 69, 72
79, 86, 45, 72
79, 59, 38, 72
79, 55, 92, 72
79, 42, 23, 72
79, 86, 23, 72
79, 96, 23, 72
79, 59, 24, 73
79, 55, 92, 73
79, 55, 84, 73
79, 74, 84, 73
79, 41, 75, 73
79, 59, 75, 73
79, 74, 75, 73
79, 74
79, 74, 75
79, 59, 75
79, 41, 75
79, 96, 76
79, 59, 76
79, 96, 48, 77
79, 74, 29, 77
79, 34, 64, 77
79, 55, 64, 77
79, 33, 47, 77
79, 41, 47, 77
79, 33, 19, 77
79, 74, 78
79, 33, 78
79
79, 96, 69, 80
79, 96, 48, 80
79, 59, 7, 80
79, 74, 7, 80
79, 55, 36, 80
79, 96, 36, 80
79, 33, 19, 80
79, 41, 81
79, 96, 2, 82
79, 86, 9, 82
79, 86, 4, 82
79, 59, 7, 82
79, 74, 7, 82
79, 55, 84, 82
79, 74, 84, 82
79, 33, 53, 82
79, 10, 22, 82
79, 41, 22, 82
79, 59, 7, 83
79, 74, 7, 83
79, 34, 14, 83
79, 42, 14, 83
79, 33, 95, 83
79, 41, 95, 83
79, 33, 62, 83
79, 74, 84
79, 55, 84
79, 55, 92, 85
79, 55, 63, 85
79, 55, 58, 85
79, 55, 36, 85
79, 96, 36, 85
79, 41, 87, 85
79, 42, 87, 85
79, 74, 87, 85
79, 33, 62, 85
79, 33, 54, 85
79, 86
79, 74, 87
79, 42, 87
79, 41, 87
79, 86, 67, 88
79, 59, 76, 88
79, 96, 76, 88
79, 55, 70, 88
79, 34, 14, 88
79, 42, 14, 88
79, 10, 94, 88
79, 59, 94, 88
79, 10, 68, 88
79, 55, 68, 88
79, 86, 68, 88
79, 41, 89
79, 33, 89
79, 86, 51, 90
79, 74, 29, 90
79, 33, 47, 90
79, 41, 47, 90
79, 33, 8, 90
79, 42, 91
79, 34, 91
79, 10, 91
79, 55, 92
79, 96, 40, 93
79, 59, 7, 93
79, 74, 7, 93
79, 34, 12, 93
79, 33, 89, 93
79, 41, 89, 93
79, 33, 8, 93
79, 10, 91, 93
79, 34, 91, 93
79, 42, 91, 93
79, 10, 20, 93
79, 41, 20, 93
79, 74, 20, 93
79, 10, 5, 93
79, 59, 94
79, 10, 94
79, 41, 95
79, 33, 95
79, 96
79, 10, 91, 97
79, 34, 91, 97
79, 42, 91, 97
79, 10, 30, 97
79, 41, 30, 97
79, 10, 20, 97
79, 41, 20, 97
79, 74, 20, 97
79, 74, 29, 98
79, 42, 46, 98
79, 42, 35, 98
79, 41, 75, 98
79, 59, 75, 98
79, 74, 75, 98
79, 34, 64, 98
79, 55, 64, 98
79, 33, 54, 98
79, 33, 47, 98
79, 41, 47, 98
79, 86, 9, 99
79, 10, 30, 99
79, 41, 30, 99
79, 96, 40, 100
79, 96, 1, 100
79, 74, 29, 100
79, 42, 49, 100
