99, 87, 5, 1
99, 62, 54, 1
99, 62, 17, 1
99, 87, 49, 2
99, 53, 52, 2
99, 62, 52, 2
99, 53, 7, 2
99, 62, 10, 3
99, 53, 84, 3
99, 87, 84, 3
99, 53, 15, 3
99, 87, 15, 3
99, 62, 4
99, 87, 5
99, 53, 89, 6
99, 53, 37, 6
99, 53, 7
99, 87, 47, 8
99, 62, 71, 8
99, 62, 19, 8
99, 62, 9
99, 62, 10
99, 87, 41, 11
99, 62, 85, 11
99, 87, 85, 11
99, 62, 36, 11
99, 62, 17, 11
99, 62, 45, 12
99, 53, 15, 12
99, 87, 15, 12
99, 62, 45, 13
99, 62, 19, 13
99, 53, 95, 13
99, 53, 84, 13
99, 87, 84, 13
99, 53, 37, 13
99, 62, 83, 14
99, 62, 63, 14
99, 62, 54, 14
99, 53, 92, 14
99, 87, 15
99, 53, 15
99, 62, 45, 16
99, 62, 36, 16
99, 53, 84, 16
99, 87, 84, 16
99, 62, 17
99, 87, 5, 18
99, 62, 71, 18
99, 62, 10, 18
99, 53, 60, 18
99, 53, 52, 18
99, 62, 52, 18
99, 53, 37, 18
99, 62, 19
99, 87, 41, 20
99, 62, 85, 20
99, 87, 85, 20
99, 62, 71, 20
99, 62, 61, 20
99, 87, 61, 20
99, 62, 40, 20
99, 62, 17, 20
99, 62, 10, 20
99, 87, 47, 90, 21
99, 53, 82, 96, 21
99, 62, 17, 96, 21
99, 62, 71, 96, 21
99, 53, 60, 56, 21
99, 87, 84, 56, 21
99, 53, 84, 56, 21
99, 62, 36, 56, 21
99, 87, 26, 56, 21
99, 87, 15, 3, 21
99, 53, 15, 3, 21
99, 87, 84, 3, 21
99, 53, 84, 3, 21
99, 62, 10, 3, 21
99, 87, 49, 22
99, 87, 41, 22
99, 62, 54, 22
99, 62, 10, 22
99, 62, 9, 22
99, 62, 71, 86, 23
99, 62, 83, 86, 23
99, 62, 91, 86, 23
99, 62, 36, 69, 23
99, 62, 40, 69, 23
99, 62, 63, 69, 23
99, 62, 17, 11, 23
99, 62, 36, 11, 23
99, 87, 85, 11, 23
99, 62, 85, 11, 23
99, 87, 41, 11, 23
99, 62, 9, 42, 23
99, 87, 61, 42, 23
99, 62, 61, 42, 23
99, 87, 85, 42, 23
99, 62, 85, 42, 23
99, 53, 82, 96, 23
99, 62, 17, 96, 23
99, 62, 71, 96, 23
99, 62, 52, 50, 23
99, 53, 52, 50, 23
99, 62, 91, 50, 23
99, 87, 49, 50, 23
99, 53, 37, 18, 23
99, 62, 52, 18, 23
99, 53, 52, 18, 23
99, 53, 60, 18, 23
99, 62, 10, 18, 23
99, 62, 71, 18, 23
99, 87, 5, 18, 23
99, 53, 7, 93, 23
99, 53, 89, 93, 23
99, 62, 40, 93, 23
99, 62, 91, 93, 23
99, 87, 5, 93, 23
99, 53, 7, 81, 23
99, 53, 82, 81, 23
99, 87, 84, 81, 23
99, 53, 84, 81, 23
99, 53, 89, 81, 23
99, 53, 92, 81, 23
99, 62, 83, 81, 23
99, 87, 41, 81, 23
99, 53, 7, 28, 23
99, 53, 95, 28, 23
99, 62, 4, 28, 23
99, 62, 71, 24
99, 62, 40, 24
99, 62, 9, 24
99, 53, 52, 24
99, 62, 52, 24
99, 62, 91, 25
99, 53, 92, 25
99, 53, 37, 25
99, 87, 26
99, 87, 41, 27
99, 62, 40, 27
99, 62, 4, 28
99, 53, 95, 28
99, 53, 7, 28
99, 87, 47, 29
99, 62, 54, 29
99, 62, 4, 29
99, 53, 60, 29
99, 87, 41, 30
99, 87, 26, 30
99, 62, 71, 30
99, 62, 10, 30
99, 87, 47, 31
99, 62, 40, 31
99, 53, 95, 31
99, 62, 4, 32
99, 53, 95, 32
99, 53, 84, 32
99, 87, 84, 32
99, 62, 54, 33
99, 53, 92, 33
99, 53, 84, 33
99, 87, 84, 33
99, 53, 82, 33
99, 62, 40, 48, 34
99, 62, 45, 48, 34
99, 62, 54, 48, 34
99, 87, 49, 48, 34
99, 62, 40, 27, 34
99, 87, 41, 27, 34
99, 53, 92, 72, 34
99, 62, 45, 72, 34
99, 62, 52, 50, 34
99, 53, 52, 50, 34
99, 62, 91, 50, 34
99, 87, 49, 50, 34
99, 53, 37, 25, 34
99, 53, 92, 25, 34
99, 62, 91, 25, 34
99, 53, 7, 81, 34
99, 53, 82, 81, 34
99, 87, 84, 81, 34
99, 53, 84, 81, 34
99, 53, 89, 81, 34
99, 53, 92, 81, 34
99, 62, 83, 81, 34
99, 87, 41, 81, 34
99, 53, 7, 79, 34
99, 62, 4, 79, 34
99, 87, 61, 79, 34
99, 62, 61, 79, 34
99, 53, 7, 2, 34
99, 62, 52, 2, 34
99, 53, 52, 2, 34
99, 87, 49, 2, 34
99, 62, 83, 35
99, 62, 9, 35
99, 53, 92, 35
99, 62, 36
99, 53, 37
99, 62, 63, 38
99, 62, 45, 38
99, 53, 84, 38
99, 87, 84, 38
99, 53, 15, 38
99, 87, 15, 38
99, 62, 45, 39
99, 62, 17, 39
99, 62, 4, 39
99, 53, 15, 39
99, 87, 15, 39
99, 62, 40
99, 87, 41
99, 62, 85, 42
99, 87, 85, 42
99, 62, 61, 42
99, 87, 61, 42
99, 62, 9, 42
99, 87, 26, 43
99, 62, 45, 43
99, 62, 36, 43
99, 62, 9, 43
99, 53, 92, 43
99, 62, 64, 44
99, 53, 15, 44
99, 87, 15, 44
99, 62, 45
99, 62, 54, 98, 46
99, 62, 64, 98, 46
99, 87, 47, 98, 46
99, 62, 40, 27, 46
99, 87, 41, 27, 46
99, 62, 10, 20, 46
99, 62, 17, 20, 46
99, 62, 40, 20, 46
99, 87, 61, 20, 46
99, 62, 61, 20, 46
99, 62, 71, 20, 46
99, 87, 85, 20, 46
99, 62, 85, 20, 46
99, 87, 41, 20, 46
99, 62, 9, 42, 46
99, 87, 61, 42, 46
99, 62, 61, 42, 46
99, 87, 85, 42, 46
99, 62, 85, 42, 46
99, 87, 84, 16, 46
99, 53, 84, 16, 46
99, 62, 36, 16, 46
99, 62, 45, 16, 46
99, 53, 82, 66, 46
99, 62, 10, 66, 46
99, 62, 17, 66, 46
99, 87, 85, 66, 46
99, 62, 85, 66, 46
99, 87, 47
99, 87, 49, 48
99, 62, 54, 48
99, 62, 45, 48
99, 62, 40, 48
99, 87, 49
99, 87, 49, 50
99, 62, 91, 50
99, 53, 52, 50
99, 62, 52, 50
99, 62, 71, 51
99, 62, 45, 51
99, 62, 36, 51
99, 53, 89, 51
99, 53, 15, 51
99, 87, 15, 51
99, 62, 52
99, 53, 52
99, 53
99, 62, 54
99, 87, 49, 55
99, 62, 71, 55
99, 62, 10, 55
99, 87, 26, 56
99, 62, 36, 56
99, 53, 84, 56
99, 87, 84, 56
99, 53, 60, 56
99, 62, 61, 57
99, 87, 61, 57
99, 62, 19, 57
99, 87, 5, 58
99, 62, 17, 58
99, 53, 7, 58
99, 62, 85, 59
99, 87, 85, 59
99, 62, 45, 59
99, 62, 10, 59
99, 53, 60
99, 87, 61
99, 62, 61
99, 62
99, 62, 63
99, 62, 64
99, 62, 63, 65
99, 62, 4, 65
99, 53, 15, 65
99, 87, 15, 65
99, 62, 85, 66
99, 87, 85, 66
99, 62, 17, 66
99, 62, 10, 66
99, 53, 82, 66
99, 53, 52, 67
99, 62, 52, 67
99, 62, 85, 68
99, 87, 85, 68
99, 62, 63, 68
99, 62, 10, 68
99, 62, 9, 68
99, 53, 89, 68
99, 62, 63, 69
99, 62, 40, 69
99, 62, 36, 69
99, 87, 26, 70
99, 62, 40, 70
99, 62, 36, 70
99, 53, 84, 70
99, 87, 84, 70
99, 62, 71
99, 62, 45, 72
99, 53, 92, 72
99, 87, 26, 73
99, 53, 92, 73
99, 53, 84, 73
99, 87, 84, 73
99, 53, 92, 74
99, 53, 89, 74
99, 87, 47, 75
99, 87, 41, 75
99, 62, 54, 75
99, 53, 60, 75
99, 53, 15, 75
99, 87, 15, 75
99, 87, 47, 76
99, 62, 36, 76
99, 53, 37, 76
99, 87, 47, 77
99, 62, 64, 77
99, 62, 19, 77
99, 87, 47, 78
99, 62, 85, 78
99, 87, 85, 78
99, 62, 83, 78
99, 53, 15, 78
99, 87, 15, 78
99, 62, 61, 79
99, 87, 61, 79
99, 62, 4, 79
99, 53, 7, 79
99, 87, 26, 80
99, 62, 36, 80
99, 62, 19, 80
99, 53, 7, 80
99, 87, 41, 81
99, 62, 83, 81
99, 53, 92, 81
99, 53, 89, 81
99, 53, 84, 81
99, 87, 84, 81
99, 53, 82, 81
99, 53, 7, 81
99, 53, 82
99, 62, 83
99, 87, 84
99, 53, 84
99, 87, 85
99, 62, 85
99, 62, 91, 86
99, 62, 83, 86
99, 62, 71, 86
99, 87
99, 53, 52, 88
99, 62, 52, 88
99, 53, 89
99, 87, 47, 90
99, 62, 91
99, 53, 92
99, 87, 5, 93
99, 62, 91, 93
99, 62, 40, 93
99, 53, 89, 93
99, 53, 7, 93
99, 62, 10, 94
99, 53, 84, 94
99, 87, 84, 94
99, 53, 52, 94
99, 62, 52, 94
99, 53, 95
99, 62, 71, 96
99, 62, 17, 96
99, 53, 82, 96
99, 62, 91, 97
99, 87, 47, 98
99, 62, 64, 98
99, 62, 54, 98
99
99, 87, 49, 100
99, 62, 40, 100
