69, 80, 1
69, 60, 7, 2
69, 37, 49, 2
69, 20, 48, 2
69, 16, 96, 2
69, 20, 96, 2
69, 23, 56, 3
69, 60, 56, 3
69, 23, 24, 3
69, 16, 10, 3
69, 37, 49, 4
69, 23, 45, 4
69, 37, 45, 4
69, 23, 40, 4
69, 60, 40, 4
69, 20, 6, 4
69, 37, 6, 4
69, 16, 86, 4
69, 16, 62, 4
69, 23, 62, 4
69, 33, 62, 4
69, 80, 1, 5
69, 60, 7, 5
69, 23, 40, 5
69, 60, 40, 5
69, 16, 70, 5
69, 16, 10, 5
69, 37, 6
69, 20, 6
69, 60, 7
69, 33, 8
69, 23, 8
69, 72, 9
69, 16, 10
69, 72, 17, 11
69, 60, 41, 11
69, 23, 75, 11
69, 60, 75, 11
69, 23, 56, 11
69, 60, 56, 11
69, 23, 24, 11
69, 20, 74, 11
69, 20, 48, 11
69, 16, 46, 11
69, 20, 46, 11
69, 20, 12
69, 37, 13
69, 80, 73, 14
69, 80, 1, 14
69, 72, 34, 14
69, 60, 92, 14
69, 33, 78, 14
69, 80, 78, 14
69, 33, 54, 14
69, 20, 12, 14
69, 80, 66, 15
69, 60, 92, 15
69, 37, 49, 15
69, 33, 53, 15
69, 60, 53, 15
69, 20, 74, 15
69, 16, 10, 15
69, 16
69, 72, 17
69, 60, 18
69, 37, 18
69, 16, 18
69, 33, 19
69, 20
69, 23, 56, 21
69, 60, 56, 21
69, 16, 96, 21
69, 20, 96, 21
69, 20, 22
69, 23
69, 23, 24
69, 37, 25
69, 33, 95, 26
69, 72, 95, 26
69, 33, 57, 26
69, 23, 8, 26
69, 33, 8, 26
69, 60, 41, 27
69, 33, 44, 27
69, 23, 40, 27
69, 60, 40, 27
69, 80, 39, 28
69, 60, 7, 28
69, 37, 25, 28
69, 33, 95, 28
69, 72, 95, 28
69, 33, 57, 28
69, 20, 93, 28
69, 16, 70, 28
69, 60, 29
69, 23, 29
69, 16, 29
69, 72, 30
69, 80, 39, 31
69, 37, 76, 31
69, 33, 95, 31
69, 72, 95, 31
69, 23, 40, 31
69, 60, 40, 31
69, 23, 24, 31
69, 23, 8, 31
69, 33, 8, 31
69, 16, 47, 31
69, 33, 47, 31
69, 33, 95, 32
69, 72, 95, 32
69, 33, 78, 32
69, 80, 78, 32
69, 33, 57, 32
69, 33, 44, 32
69, 20, 48, 32
69, 16, 35, 32
69, 16, 18, 32
69, 37, 18, 32
69, 60, 18, 32
69, 33
69, 72, 34
69, 16, 35
69, 60, 92, 36
69, 37, 76, 36
69, 37, 13, 36
69, 33, 78, 36
69, 80, 78, 36
69, 16, 96, 36
69, 20, 96, 36
69, 16, 62, 36
69, 23, 62, 36
69, 33, 62, 36
69, 16, 47, 36
69, 33, 47, 36
69, 16, 35, 36
69, 37
69, 23, 45, 38
69, 37, 45, 38
69, 20, 94, 38
69, 16, 18, 38
69, 37, 18, 38
69, 60, 18, 38
69, 80, 39
69, 60, 40
69, 23, 40
69, 60, 41
69, 72, 34, 42
69, 72, 9, 42
69, 33, 79, 42
69, 20, 93, 42
69, 72, 9, 43
69, 60, 92, 43
69, 33, 78, 43
69, 80, 78, 43
69, 23, 45, 43
69, 37, 45, 43
69, 16, 35, 43
69, 33, 44
69, 37, 45
69, 23, 45
69, 20, 46
69, 16, 46
69, 33, 47
69, 16, 47
69, 20, 48
69, 37, 49
69, 80, 66, 50
69, 37, 49, 50
69, 37, 13, 50
69, 33, 44, 50
69, 20, 91, 50
69, 23, 91, 50
69, 20, 12, 50
69, 16, 86, 50
69, 37, 25, 51
69, 33, 89, 51
69, 33, 78, 51
69, 80, 78, 51
69, 23, 45, 51
69, 37, 45, 51
69, 20, 71, 51
69, 20, 6, 51
69, 37, 6, 51
69, 16, 86, 51
69, 16, 29, 51
69, 23, 29, 51
69, 60, 29, 51
69, 37, 13, 52
69, 33, 57, 52
69, 33, 54, 52
69, 33, 53, 52
69, 60, 53, 52
69, 23, 56, 52
69, 60, 56, 52
69, 23, 45, 52
69, 37, 45, 52
69, 16, 62, 52
69, 23, 62, 52
69, 33, 62, 52
69, 16, 29, 52
69, 23, 29, 52
69, 60, 29, 52
69, 60, 53
69, 33, 53
69, 33, 54
69, 80, 1, 55
69, 37, 49, 55
69, 33, 79, 55
69, 23, 75, 55
69, 60, 75, 55
69, 20, 93, 55
69, 20, 71, 55
69, 16, 35, 55
69, 16, 10, 55
69, 60, 56
69, 23, 56
69, 33, 57
69, 72, 17, 58
69, 60, 7, 58
69, 33, 44, 58
69, 20, 97, 58
69, 16, 70, 58
69, 16, 29, 58
69, 23, 29, 58
69, 60, 29, 58
69, 33, 79, 59
69, 33, 78, 59
69, 80, 78, 59
69, 23, 45, 59
69, 37, 45, 59
69, 16, 10, 59
69, 60
69, 72, 30, 61
69, 60, 7, 61
69, 16, 62, 61
69, 23, 62, 61
69, 33, 62, 61
69, 33, 62
69, 23, 62
69, 16, 62
69, 80, 73, 63
69, 37, 25, 63
69, 20, 12, 63
69, 16, 62, 63
69, 23, 62, 63
69, 33, 62, 63
69, 72, 34, 64
69, 16, 62, 64
69, 23, 62, 64
69, 33, 62, 64
69, 16, 29, 64
69, 23, 29, 64
69, 60, 29, 64
69, 33, 44, 65
69, 20, 94, 65
69, 16, 86, 65
69, 16, 29, 65
69, 23, 29, 65
69, 60, 29, 65
69, 80, 66
69, 80, 66, 67
69, 37, 25, 67
69, 37, 13, 67
69, 16, 86, 67
69, 72, 9, 68
69, 33, 89, 68
69, 33, 78, 68
69, 80, 78, 68
69, 33, 44, 68
69, 20, 93, 68
69, 16, 86, 68
69, 16, 18, 68
69, 37, 18, 68
69, 60, 18, 68
69, 16, 10, 68
69
69, 16, 70
69, 20, 71
69, 72
69, 80, 73
69, 20, 74
69, 60, 75
69, 23, 75
69, 37, 76
69, 33, 19, 77
69, 20, 93, 77
69, 20, 48, 77
69, 16, 47, 77
69, 33, 47, 77
69, 16, 29, 77
69, 23, 29, 77
69, 60, 29, 77
69, 80, 78
69, 33, 78
69, 33, 79
69, 80
69, 80, 73, 81
69, 60, 92, 81
69, 60, 41, 81
69, 60, 7, 81
69, 37, 13, 81
69, 33, 89, 81
69, 16, 82, 81
69, 80, 82, 81
69, 80, 82
69, 16, 82
69, 60, 7, 83
69, 33, 95, 83
69, 72, 95, 83
69, 20, 6, 83
69, 37, 6, 83
69, 16, 82, 83
69, 80, 82, 83
69, 16, 62, 83
69, 23, 62, 83
69, 33, 62, 83
69, 72, 30, 84
69, 60, 92, 84
69, 33, 95, 84
69, 72, 95, 84
69, 33, 53, 84
69, 60, 53, 84
69, 33, 19, 84
69, 23, 45, 84
69, 37, 45, 84
69, 23, 8, 84
69, 33, 8, 84
69, 20, 74, 84
69, 20, 22, 84
69, 60, 92, 85
69, 33, 54, 85
69, 20, 6, 85
69, 37, 6, 85
69, 16, 62, 85
69, 23, 62, 85
69, 33, 62, 85
69, 16, 86
69, 72, 30, 87
69, 60, 41, 87
69, 37, 13, 87
69, 33, 57, 87
69, 20, 74, 87
69, 37, 76, 88
69, 23, 56, 88
69, 60, 56, 88
69, 20, 94, 88
69, 20, 6, 88
69, 37, 6, 88
69, 16, 70, 88
69, 33, 89
69, 23, 8, 90
69, 33, 8, 90
69, 20, 6, 90
69, 37, 6, 90
69, 16, 47, 90
69, 33, 47, 90
69, 16, 29, 90
69, 23, 29, 90
69, 60, 29, 90
69, 23, 91
69, 20, 91
69, 60, 92
69, 20, 93
69, 20, 94
69, 72, 95
69, 33, 95
69, 20, 96
69, 16, 96
69, 20, 97
69, 33, 54, 98
69, 23, 75, 98
69, 60, 75, 98
69, 23, 56, 98
69, 60, 56, 98
69, 16, 47, 98
69, 33, 47, 98
69, 16, 46, 98
69, 20, 46, 98
69, 16, 35, 98
69, 16, 29, 98
69, 23, 29, 98
69, 60, 29, 98
69, 72, 30, 99
69, 72, 9, 99
69, 80, 1, 100
69, 37, 49, 100
69, 23, 40, 100
69, 60, 40, 100
69, 16, 29, 100
69, 23, 29, 100
69, 60, 29, 100
