1
1, 14, 2
1, 75, 56, 3
1, 14, 24, 3
1, 5, 84, 3
1, 30, 84, 3
1, 55, 84, 3
1, 5, 15, 3
1, 55, 15, 3
1, 14, 4
1, 6, 4
1, 5
1, 6
1, 89, 74, 7
1, 75, 53, 7
1, 75, 44, 7
1, 55, 68, 7
1, 89, 68, 7
1, 6, 60, 7
1, 5, 15, 7
1, 55, 15, 7
1, 100, 33, 8
1, 75, 71, 8
1, 5, 47, 8
1, 100, 9
1, 14, 9
1, 100, 16, 10
1, 89, 91, 10
1, 75, 95, 10
1, 75, 11, 10
1, 55, 25, 10
1, 30, 97, 10
1, 30, 79, 10
1, 14, 96, 10
1, 55, 96, 10
1, 6, 62, 10
1, 75, 11
1, 14, 12
1, 89, 37, 13
1, 75, 95, 13
1, 14, 12, 13
1, 5, 84, 13
1, 30, 84, 13
1, 55, 84, 13
1, 5, 58, 13
1, 55, 58, 13
1, 5, 18, 13
1, 14
1, 55, 15
1, 5, 15
1, 100, 16
1, 30, 17
1, 5, 18
1, 100, 33, 19
1, 89, 49, 19
1, 14, 9, 19
1, 100, 9, 19
1, 6, 62, 19
1, 89, 74, 20
1, 75, 98, 20
1, 100, 98, 20
1, 75, 73, 20
1, 75, 71, 20
1, 30, 61, 20
1, 30, 17, 20
1, 14, 38, 20
1, 6, 85, 20
1, 6, 41, 20
1, 5, 40, 20
1, 75, 56, 21
1, 14, 96, 21
1, 55, 96, 21
1, 6, 90, 21
1, 89, 49, 22
1, 75, 54, 22
1, 75, 35, 22
1, 14, 9, 22
1, 100, 9, 22
1, 6, 41, 22
1, 5, 93, 22
1, 89, 93, 22
1, 75, 11, 23
1, 14, 96, 23
1, 55, 96, 23
1, 14, 81, 23
1, 89, 81, 23
1, 5, 93, 23
1, 89, 93, 23
1, 5, 18, 23
1, 14, 24
1, 55, 25
1, 75, 95, 26
1, 75, 11, 26
1, 30, 87, 26
1, 14, 81, 26
1, 89, 81, 26
1, 5, 63, 26
1, 55, 63, 26
1, 5, 15, 26
1, 55, 15, 26
1, 75, 44, 27
1, 6, 88, 27
1, 14, 88, 27
1, 6, 41, 27
1, 5, 40, 27
1, 75, 95, 28
1, 55, 25, 28
1, 30, 70, 28
1, 55, 70, 28
1, 6, 90, 28
1, 6, 4, 28
1, 14, 4, 28
1, 5, 93, 28
1, 89, 93, 28
1, 30, 29
1, 30
1, 75, 95, 31
1, 75, 11, 31
1, 14, 76, 31
1, 14, 24, 31
1, 5, 58, 31
1, 55, 58, 31
1, 5, 47, 31
1, 5, 40, 31
1, 75, 95, 32
1, 75, 44, 32
1, 75, 35, 32
1, 30, 78, 32
1, 6, 4, 32
1, 14, 4, 32
1, 5, 84, 32
1, 30, 84, 32
1, 55, 84, 32
1, 5, 18, 32
1, 100, 33
1, 55, 25, 34
1, 30, 79, 34
1, 14, 81, 34
1, 89, 81, 34
1, 14, 2, 34
1, 75, 35
1, 55, 36
1, 89, 37
1, 14, 38
1, 75, 35, 39
1, 30, 17, 39
1, 14, 96, 39
1, 55, 96, 39
1, 6, 4, 39
1, 14, 4, 39
1, 5, 15, 39
1, 55, 15, 39
1, 5, 40
1, 6, 41
1, 30, 79, 42
1, 30, 61, 42
1, 14, 38, 42
1, 14, 9, 42
1, 100, 9, 42
1, 6, 85, 42
1, 6, 51, 42
1, 89, 51, 42
1, 5, 93, 42
1, 89, 93, 42
1, 75, 35, 43
1, 55, 92, 43
1, 55, 68, 43
1, 89, 68, 43
1, 55, 36, 43
1, 30, 78, 43
1, 14, 9, 43
1, 100, 9, 43
1, 75, 44
1, 89, 37, 45
1, 75, 95, 45
1, 75, 11, 45
1, 55, 68, 45
1, 89, 68, 45
1, 30, 70, 45
1, 55, 70, 45
1, 30, 61, 45
1, 14, 9, 45
1, 100, 9, 45
1, 6, 62, 45
1, 5, 47, 45
1, 5, 40, 45
1, 5, 15, 45
1, 55, 15, 45
1, 100, 16, 46
1, 75, 98, 46
1, 100, 98, 46
1, 5, 47
1, 89, 49, 48
1, 75, 54, 48
1, 55, 68, 48
1, 89, 68, 48
1, 14, 96, 48
1, 55, 96, 48
1, 6, 88, 48
1, 14, 88, 48
1, 5, 93, 48
1, 89, 93, 48
1, 5, 40, 48
1, 89, 49
1, 89, 91, 50
1, 89, 49, 50
1, 75, 44, 50
1, 14, 12, 50
1, 6, 51, 50
1, 89, 51, 50
1, 89, 51
1, 6, 51
1, 75, 56, 52
1, 75, 54, 52
1, 75, 53, 52
1, 30, 29, 52
1, 6, 62, 52
1, 75, 53
1, 75, 54
1, 55
1, 75, 56
1, 100, 33, 57
1, 30, 61, 57
1, 6, 51, 57
1, 89, 51, 57
1, 55, 58
1, 5, 58
1, 30, 79, 59
1, 30, 78, 59
1, 14, 38, 59
1, 6, 85, 59
1, 6, 60
1, 30, 61
1, 6, 62
1, 55, 63
1, 5, 63
1, 55, 64
1, 75, 44, 65
1, 30, 29, 65
1, 6, 4, 65
1, 14, 4, 65
1, 5, 63, 65
1, 55, 63, 65
1, 5, 15, 65
1, 55, 15, 65
1, 30, 17, 66
1, 14, 81, 66
1, 89, 81, 66
1, 6, 85, 66
1, 55, 25, 67
1, 89, 68
1, 55, 68
1, 75, 56, 69
1, 55, 36, 69
1, 14, 96, 69
1, 55, 96, 69
1, 5, 63, 69
1, 55, 63, 69
1, 5, 40, 69
1, 55, 70
1, 30, 70
1, 75, 71
1, 55, 92, 72
1, 14, 38, 72
1, 6, 90, 72
1, 75, 73
1, 89, 74
1, 75
1, 14, 76
1, 55, 64, 77
1, 30, 29, 77
1, 5, 93, 77
1, 89, 93, 77
1, 5, 47, 77
1, 30, 78
1, 30, 79
1, 55, 36, 80
1, 6, 90, 80
1, 89, 81
1, 14, 81
1, 100, 16, 82
1, 75, 53, 82
1, 30, 17, 82
1, 14, 9, 82
1, 100, 9, 82
1, 14, 2, 82
1, 6, 4, 82
1, 14, 4, 82
1, 5, 84, 82
1, 30, 84, 82
1, 55, 84, 82
1, 14, 83
1, 6, 83
1, 55, 84
1, 30, 84
1, 5, 84
1, 6, 85
1, 100, 16, 86
1, 89, 91, 86
1, 75, 71, 86
1, 30, 79, 86
1, 30, 70, 86
1, 55, 70, 86
1, 14, 76, 86
1, 14, 38, 86
1, 14, 2, 86
1, 6, 83, 86
1, 14, 83, 86
1, 30, 87
1, 14, 88
1, 6, 88
1, 89
1, 6, 90
1, 89, 91
1, 55, 92
1, 89, 93
1, 5, 93
1, 55, 25, 94
1, 30, 70, 94
1, 55, 70, 94
1, 14, 76, 94
1, 6, 90, 94
1, 5, 84, 94
1, 30, 84, 94
1, 55, 84, 94
1, 75, 95
1, 55, 96
1, 14, 96
1, 30, 97
1, 100, 98
1, 75, 98
1, 30, 99
1, 100
