50, 54, 1
50, 74, 7, 2
50, 54, 52, 2
50, 62, 52, 2
50, 54, 49, 2
50, 54, 48, 2
50, 34, 14, 2
50, 54, 14, 2
50, 74, 15, 3
50, 62, 10, 3
50, 23, 56, 3
50, 23, 24, 3
50, 8, 84, 3
50, 74, 84, 3
50, 62, 4
50, 74, 87, 5
50, 74, 7, 5
50, 62, 10, 5
50, 54, 1, 5
50, 23, 40, 5
50, 62, 40, 5
50, 8, 26, 5
50, 74, 78, 6
50, 74, 20, 6
50, 54, 1, 6
50, 34, 25, 6
50, 8, 12, 6
50, 34, 12, 6
50, 74, 7
50, 8
50, 62, 9
50, 54, 9
50, 62, 10
50, 74, 11
50, 34, 12
50, 8, 12
50, 8, 13
50, 54, 14
50, 34, 14
50, 74, 15
50, 62, 36, 16
50, 76, 36, 16
50, 23, 45, 16
50, 62, 45, 16
50, 8, 84, 16
50, 74, 84, 16
50, 8, 31, 16
50, 76, 31, 16
50, 62, 17
50, 62, 10, 18
50, 54, 52, 18
50, 62, 52, 18
50, 34, 71, 18
50, 62, 71, 18
50, 23, 60, 18
50, 54, 60, 18
50, 76, 60, 18
50, 23, 56, 18
50, 62, 19
50, 74, 20
50, 23, 56, 21
50, 8, 90, 21
50, 54, 22
50, 23
50, 23, 24
50, 34, 25
50, 8, 26
50, 76, 88, 27
50, 34, 44, 27
50, 23, 40, 27
50, 62, 40, 27
50, 76, 95, 28
50, 74, 7, 28
50, 62, 4, 28
50, 34, 25, 28
50, 8, 93, 28
50, 8, 90, 28
50, 74, 29
50, 54, 29
50, 23, 29
50, 8, 30
50, 76, 31
50, 8, 31
50, 76, 95, 32
50, 74, 78, 32
50, 62, 4, 32
50, 54, 48, 32
50, 34, 44, 32
50, 8, 84, 32
50, 74, 84, 32
50, 54, 33
50, 34
50, 62, 83, 35
50, 54, 9, 35
50, 62, 9, 35
50, 34, 42, 35
50, 23, 75, 35
50, 54, 75, 35
50, 74, 75, 35
50, 23, 24, 35
50, 8, 13, 35
50, 8, 12, 35
50, 34, 12, 35
50, 76, 36
50, 62, 36
50, 76, 94, 37
50, 76, 53, 37
50, 54, 49, 37
50, 23, 72, 37
50, 76, 94, 38
50, 74, 15, 38
50, 62, 63, 38
50, 34, 14, 38
50, 54, 14, 38
50, 23, 45, 38
50, 62, 45, 38
50, 8, 84, 38
50, 74, 84, 38
50, 74, 15, 39
50, 62, 17, 39
50, 62, 4, 39
50, 23, 45, 39
50, 62, 45, 39
50, 62, 40
50, 23, 40
50, 74, 87, 41
50, 23, 60, 41
50, 54, 60, 41
50, 76, 60, 41
50, 8, 84, 41
50, 74, 84, 41
50, 34, 42
50, 74, 78, 43
50, 62, 36, 43
50, 76, 36, 43
50, 54, 9, 43
50, 62, 9, 43
50, 23, 45, 43
50, 62, 45, 43
50, 8, 26, 43
50, 34, 44
50, 62, 45
50, 23, 45
50, 74, 20, 46
50, 54, 98, 46
50, 34, 42, 46
50, 76, 95, 47
50, 74, 87, 47
50, 62, 61, 47
50, 54, 48, 47
50, 54, 33, 47
50, 54, 9, 47
50, 62, 9, 47
50, 34, 64, 47
50, 62, 64, 47
50, 54, 48
50, 54, 49
50
50, 76, 88, 51
50, 76, 86, 51
50, 74, 78, 51
50, 74, 15, 51
50, 62, 36, 51
50, 76, 36, 51
50, 54, 98, 51
50, 34, 71, 51
50, 62, 71, 51
50, 34, 25, 51
50, 23, 45, 51
50, 62, 45, 51
50, 23, 29, 51
50, 54, 29, 51
50, 74, 29, 51
50, 62, 52
50, 54, 52
50, 76, 53
50, 54
50, 62, 10, 55
50, 54, 49, 55
50, 54, 1, 55
50, 34, 71, 55
50, 62, 71, 55
50, 23, 75, 55
50, 54, 75, 55
50, 74, 75, 55
50, 8, 93, 55
50, 23, 56
50, 62, 61, 57
50, 62, 19, 57
50, 54, 33, 57
50, 74, 7, 58
50, 62, 17, 58
50, 34, 44, 58
50, 23, 29, 58
50, 54, 29, 58
50, 74, 29, 58
50, 74, 78, 59
50, 62, 10, 59
50, 54, 85, 59
50, 62, 85, 59
50, 23, 45, 59
50, 62, 45, 59
50, 76, 60
50, 54, 60
50, 23, 60
50, 62, 61
50, 62
50, 62, 63
50, 62, 64
50, 34, 64
50, 76, 94, 65
50, 76, 86, 65
50, 74, 15, 65
50, 62, 63, 65
50, 62, 4, 65
50, 34, 44, 65
50, 23, 29, 65
50, 54, 29, 65
50, 74, 29, 65
50, 8, 31, 65
50, 76, 31, 65
50, 62, 17, 66
50, 62, 10, 66
50, 54, 85, 66
50, 62, 85, 66
50, 76, 86, 67
50, 54, 52, 67
50, 62, 52, 67
50, 34, 25, 67
50, 8, 13, 67
50, 76, 86, 68
50, 74, 78, 68
50, 62, 63, 68
50, 62, 10, 68
50, 54, 85, 68
50, 62, 85, 68
50, 54, 9, 68
50, 62, 9, 68
50, 34, 44, 68
50, 8, 93, 68
50, 62, 63, 69
50, 62, 36, 69
50, 76, 36, 69
50, 54, 48, 69
50, 23, 56, 69
50, 23, 40, 69
50, 62, 40, 69
50, 62, 36, 70
50, 76, 36, 70
50, 23, 40, 70
50, 62, 40, 70
50, 8, 84, 70
50, 74, 84, 70
50, 8, 30, 70
50, 8, 26, 70
50, 62, 71
50, 34, 71
50, 23, 72
50, 23, 75, 73
50, 54, 75, 73
50, 74, 75, 73
50, 23, 24, 73
50, 8, 84, 73
50, 74, 84, 73
50, 8, 26, 73
50, 74
50, 74, 75
50, 54, 75
50, 23, 75
50, 76
50, 62, 19, 77
50, 54, 48, 77
50, 34, 64, 77
50, 62, 64, 77
50, 23, 29, 77
50, 54, 29, 77
50, 74, 29, 77
50, 8, 93, 77
50, 74, 78
50, 76, 88, 79
50, 74, 7, 79
50, 62, 61, 79
50, 62, 4, 79
50, 54, 33, 79
50, 8, 30, 79
50, 8, 12, 79
50, 34, 12, 79
50, 74, 7, 80
50, 62, 36, 80
50, 76, 36, 80
50, 62, 19, 80
50, 54, 48, 80
50, 8, 90, 80
50, 8, 26, 80
50, 74, 7, 81
50, 62, 83, 81
50, 34, 14, 81
50, 54, 14, 81
50, 8, 84, 81
50, 74, 84, 81
50, 8, 13, 81
50, 76, 53, 82
50, 74, 7, 82
50, 62, 17, 82
50, 62, 4, 82
50, 54, 22, 82
50, 54, 9, 82
50, 62, 9, 82
50, 8, 84, 82
50, 74, 84, 82
50, 8, 31, 82
50, 76, 31, 82
50, 62, 83
50, 74, 84
50, 8, 84
50, 62, 85
50, 54, 85
50, 76, 86
50, 74, 87
50, 76, 88
50, 76, 94, 89
50, 76, 53, 89
50, 74, 15, 89
50, 62, 17, 89
50, 54, 33, 89
50, 54, 1, 89
50, 23, 75, 89
50, 54, 75, 89
50, 74, 75, 89
50, 23, 29, 89
50, 54, 29, 89
50, 74, 29, 89
50, 8, 90
50, 62, 91
50, 34, 91
50, 23, 91
50, 76, 53, 92
50, 74, 11, 92
50, 62, 19, 92
50, 62, 4, 92
50, 54, 98, 92
50, 54, 85, 92
50, 62, 85, 92
50, 23, 60, 92
50, 54, 60, 92
50, 76, 60, 92
50, 23, 29, 92
50, 54, 29, 92
50, 74, 29, 92
50, 23, 24, 92
50, 8, 93
50, 76, 94
50, 76, 95
50, 74, 20, 96
50, 62, 17, 96
50, 34, 71, 96
50, 62, 71, 96
50, 34, 44, 96
50, 34, 14, 96
50, 54, 14, 96
50, 74, 20, 97
50, 23, 91, 97
50, 34, 91, 97
50, 62, 91, 97
50, 8, 31, 97
50, 76, 31, 97
50, 8, 30, 97
50, 54, 98
50, 54, 9, 99
50, 62, 9, 99
50, 8, 30, 99
50, 54, 49, 100
50, 54, 1, 100
50, 23, 40, 100
50, 62, 40, 100
50, 23, 29, 100
50, 54, 29, 100
50, 74, 29, 100
