96, 1
96, 2
96, 10, 3
96, 40, 4
96, 40, 5
96, 10, 5
96, 1, 5
96, 1, 6
96, 48, 7
96, 39, 7
96, 23, 8
96, 40, 9
96, 39, 9
96, 10
96, 48, 11
96, 36, 11
96, 2, 11
96, 39, 12
96, 69, 37, 13
96, 40, 95, 13
96, 76, 95, 13
96, 40, 27, 13
96, 39, 12, 13
96, 23, 45, 13
96, 40, 45, 13
96, 23, 8, 13
96, 10, 18, 13
96, 2, 86, 13
96, 76, 86, 13
96, 79, 86, 13
96, 1, 14
96, 10, 15
96, 69, 16
96, 39, 16
96, 36, 16
96, 48, 17
96, 21, 17
96, 10, 18
96, 48, 77, 19
96, 48, 33, 19
96, 69, 33, 19
96, 79, 33, 19
96, 39, 9, 19
96, 40, 9, 19
96, 23, 62, 19
96, 76, 62, 19
96, 21, 43, 19
96, 36, 43, 19
96, 2, 82, 19
96, 69, 20
96, 40, 20
96, 21, 20
96, 10, 20
96, 21
96, 10, 22
96, 23
96, 40, 24
96, 23, 24
96, 79, 42, 25
96, 69, 37, 25
96, 10, 91, 25
96, 23, 91, 25
96, 10, 22, 25
96, 2, 34, 25
96, 48, 34, 25
96, 79, 34, 25
96, 1, 55, 25
96, 10, 55, 25
96, 79, 55, 25
96, 40, 95, 26
96, 76, 95, 26
96, 23, 8, 26
96, 21, 43, 26
96, 36, 43, 26
96, 10, 15, 26
96, 2, 11, 26
96, 36, 11, 26
96, 48, 11, 26
96, 40, 27
96, 39, 28
96, 48, 29
96, 23, 29
96, 10, 30
96, 1, 30
96, 76, 31
96, 40, 31
96, 39, 31
96, 48, 32
96, 79, 33
96, 69, 33
96, 48, 33
96, 79, 34
96, 48, 34
96, 2, 34
96, 79, 42, 35
96, 39, 12, 35
96, 39, 9, 35
96, 40, 9, 35
96, 36, 16, 35
96, 39, 16, 35
96, 69, 16, 35
96, 23, 24, 35
96, 40, 24, 35
96, 10, 68, 35
96, 1, 75, 35
96, 23, 75, 35
96, 36
96, 69, 37
96, 23, 45, 38
96, 40, 45, 38
96, 10, 94, 38
96, 76, 94, 38
96, 10, 59, 38
96, 79, 59, 38
96, 10, 18, 38
96, 10, 15, 38
96, 1, 14, 38
96, 39
96, 40
96, 79, 41
96, 2, 41
96, 79, 42
96, 36, 43
96, 21, 43
96, 39, 44
96, 40, 45
96, 23, 45
96, 79, 42, 46
96, 40, 27, 46
96, 36, 16, 46
96, 39, 16, 46
96, 69, 16, 46
96, 10, 66, 46
96, 10, 20, 46
96, 21, 20, 46
96, 40, 20, 46
96, 69, 20, 46
96, 48, 47
96, 48
96, 79, 42, 49
96, 76, 54, 49
96, 69, 37, 49
96, 48, 32, 49
96, 36, 85, 49
96, 36, 70, 49
96, 40, 70, 49
96, 10, 22, 49
96, 1, 89, 49
96, 2, 89, 49
96, 39, 44, 50
96, 39, 12, 50
96, 36, 51, 50
96, 10, 91, 50
96, 23, 91, 50
96, 10, 66, 50
96, 2, 86, 50
96, 76, 86, 50
96, 79, 86, 50
96, 36, 51
96, 76, 54, 52
96, 76, 53, 52
96, 23, 62, 52
96, 76, 62, 52
96, 23, 56, 52
96, 36, 56, 52
96, 23, 45, 52
96, 40, 45, 52
96, 23, 29, 52
96, 48, 29, 52
96, 21, 43, 52
96, 36, 43, 52
96, 76, 53
96, 76, 54
96, 79, 55
96, 10, 55
96, 1, 55
96, 36, 56
96, 23, 56
96, 48, 77, 57
96, 48, 33, 57
96, 69, 33, 57
96, 79, 33, 57
96, 48, 32, 57
96, 36, 51, 57
96, 39, 44, 58
96, 39, 7, 58
96, 48, 7, 58
96, 36, 70, 58
96, 40, 70, 58
96, 36, 51, 58
96, 23, 29, 58
96, 48, 29, 58
96, 21, 17, 58
96, 48, 17, 58
96, 1, 55, 58
96, 10, 55, 58
96, 79, 55, 58
96, 1, 5, 58
96, 10, 5, 58
96, 40, 5, 58
96, 79, 59
96, 10, 59
96, 76, 60
96, 69, 60
96, 39, 60
96, 23, 60
96, 76, 88, 61
96, 48, 77, 61
96, 39, 7, 61
96, 48, 7, 61
96, 23, 62, 61
96, 76, 62, 61
96, 10, 68, 61
96, 1, 30, 61
96, 10, 30, 61
96, 76, 62
96, 23, 62
96, 39, 12, 63
96, 36, 51, 63
96, 23, 62, 63
96, 76, 62, 63
96, 1, 55, 63
96, 10, 55, 63
96, 79, 55, 63
96, 1, 5, 63
96, 10, 5, 63
96, 40, 5, 63
96, 39, 31, 64
96, 40, 31, 64
96, 76, 31, 64
96, 23, 62, 64
96, 76, 62, 64
96, 23, 29, 64
96, 48, 29, 64
96, 2, 34, 64
96, 48, 34, 64
96, 79, 34, 64
96, 1, 55, 64
96, 10, 55, 64
96, 79, 55, 64
96, 40, 4, 65
96, 39, 44, 65
96, 39, 31, 65
96, 40, 31, 65
96, 76, 31, 65
96, 23, 29, 65
96, 48, 29, 65
96, 10, 94, 65
96, 76, 94, 65
96, 10, 15, 65
96, 2, 86, 65
96, 76, 86, 65
96, 79, 86, 65
96, 10, 66
96, 10, 66, 67
96, 2, 86, 67
96, 76, 86, 67
96, 79, 86, 67
96, 10, 68
96, 69
96, 40, 70
96, 36, 70
96, 48, 77, 71
96, 39, 31, 71
96, 40, 31, 71
96, 76, 31, 71
96, 23, 62, 71
96, 76, 62, 71
96, 23, 29, 71
96, 48, 29, 71
96, 23, 24, 71
96, 40, 24, 71
96, 10, 68, 71
96, 10, 20, 71
96, 21, 20, 71
96, 40, 20, 71
96, 69, 20, 71
96, 2, 34, 71
96, 48, 34, 71
96, 79, 34, 71
96, 1, 75, 71
96, 23, 75, 71
96, 69, 72
96, 23, 72
96, 36, 80, 73
96, 48, 80, 73
96, 69, 80, 73
96, 23, 24, 73
96, 40, 24, 73
96, 1, 75, 73
96, 23, 75, 73
96, 79, 74
96, 76, 74
96, 23, 75
96, 1, 75
96, 76
96, 48, 77
96, 76, 74, 78
96, 79, 74, 78
96, 48, 47, 78
96, 48, 33, 78
96, 69, 33, 78
96, 79, 33, 78
96, 39, 44, 78
96, 36, 85, 78
96, 36, 80, 78
96, 48, 80, 78
96, 69, 80, 78
96, 10, 15, 78
96, 1, 30, 78
96, 10, 30, 78
96, 79
96, 69, 80
96, 48, 80
96, 36, 80
96, 39, 7, 81
96, 48, 7, 81
96, 36, 51, 81
96, 2, 82, 81
96, 2, 41, 81
96, 79, 41, 81
96, 1, 89, 81
96, 2, 89, 81
96, 1, 14, 81
96, 2, 82
96, 40, 95, 83
96, 76, 95, 83
96, 39, 7, 83
96, 48, 7, 83
96, 23, 62, 83
96, 76, 62, 83
96, 2, 82, 83
96, 1, 14, 83
96, 1, 6, 83
96, 76, 74, 84
96, 79, 74, 84
96, 76, 53, 84
96, 40, 95, 84
96, 76, 95, 84
96, 39, 31, 84
96, 40, 31, 84
96, 76, 31, 84
96, 23, 45, 84
96, 40, 45, 84
96, 23, 8, 84
96, 21, 43, 84
96, 36, 43, 84
96, 10, 22, 84
96, 1, 55, 84
96, 10, 55, 84
96, 79, 55, 84
96, 1, 30, 84
96, 10, 30, 84
96, 1, 5, 84
96, 10, 5, 84
96, 40, 5, 84
96, 36, 85
96, 79, 86
96, 76, 86
96, 2, 86
96, 79, 42, 87
96, 76, 74, 87
96, 79, 74, 87
96, 40, 4, 87
96, 36, 85, 87
96, 2, 41, 87
96, 79, 41, 87
96, 2, 11, 87
96, 36, 11, 87
96, 48, 11, 87
96, 1, 30, 87
96, 10, 30, 87
96, 76, 88
96, 2, 89
96, 1, 89
96, 76, 88, 90
96, 48, 47, 90
96, 36, 51, 90
96, 23, 29, 90
96, 48, 29, 90
96, 23, 8, 90
96, 1, 6, 90
96, 23, 91
96, 10, 91
96, 76, 53, 92
96, 40, 4, 92
96, 36, 85, 92
96, 23, 60, 92
96, 39, 60, 92
96, 69, 60, 92
96, 76, 60, 92
96, 23, 29, 92
96, 48, 29, 92
96, 23, 24, 92
96, 40, 24, 92
96, 10, 18, 92
96, 2, 82, 92
96, 2, 11, 92
96, 36, 11, 92
96, 48, 11, 92
96, 1, 55, 92
96, 10, 55, 92
96, 79, 55, 92
96, 40, 93
96, 76, 94
96, 10, 94
96, 76, 95
96, 40, 95
96
96, 39, 31, 97
96, 40, 31, 97
96, 76, 31, 97
96, 10, 91, 97
96, 23, 91, 97
96, 10, 20, 97
96, 21, 20, 97
96, 40, 20, 97
96, 69, 20, 97
96, 1, 30, 97
96, 10, 30, 97
96, 76, 88, 98
96, 76, 54, 98
96, 48, 47, 98
96, 48, 32, 98
96, 23, 56, 98
96, 36, 56, 98
96, 23, 29, 98
96, 48, 29, 98
96, 1, 100, 98
96, 40, 100, 98
96, 1, 75, 98
96, 23, 75, 98
96, 48, 32, 99
96, 39, 9, 99
96, 40, 9, 99
96, 1, 30, 99
96, 10, 30, 99
96, 40, 100
96, 1, 100
